%!PS-Adobe-3.0 EPSF-3.0
%%Title: dist.eps
%%Creator: Matplotlib v3.5.2, https://matplotlib.org/
%%CreationDate: Wed Jun  7 17:18:13 2023
%%Orientation: portrait
%%BoundingBox: 90 223 522 569
%%HiResBoundingBox: 90.000000 223.200000 522.000000 568.800000
%%EndComments
%%BeginProlog
/mpldict 11 dict def
mpldict begin
/_d { bind def } bind def
/m { moveto } _d
/l { lineto } _d
/r { rlineto } _d
/c { curveto } _d
/cl { closepath } _d
/ce { closepath eofill } _d
/box {
      m
      1 index 0 r
      0 exch r
      neg 0 r
      cl
    } _d
/clipbox {
      box
      clip
      newpath
    } _d
/sc { setcachedevice } _d
%!PS-Adobe-3.0 Resource-Font
%%Creator: Converted from TrueType to Type 3 by Matplotlib.
10 dict begin
/FontName /DejaVuSans def
/PaintType 0 def
/FontMatrix [0.00048828125 0 0 0.00048828125 0 0] def
/FontBBox [-2090 -948 3673 2524] def
/FontType 3 def
/Encoding [/space /period /zero /one /two /five /seven /eight /nine /F /N /P /T /a /c /e /i /l /n /o /q /r /s /t /u /y] def
/CharStrings 27 dict dup begin
/.notdef 0 def
/space{651 0 0 0 0 0 sc
ce} _d
/period{651 0 219 0 430 254 sc
219 254 m
430 254 l
430 0 l
219 0 l
219 254 l

ce} _d
/zero{1303 0 135 -29 1167 1520 sc
651 1360 m
547 1360 469 1309 416 1206 c
364 1104 338 950 338 745 c
338 540 364 387 416 284 c
469 182 547 131 651 131 c
756 131 834 182 886 284 c
939 387 965 540 965 745 c
965 950 939 1104 886 1206 c
834 1309 756 1360 651 1360 c

651 1520 m
818 1520 946 1454 1034 1321 c
1123 1189 1167 997 1167 745 c
1167 494 1123 302 1034 169 c
946 37 818 -29 651 -29 c
484 -29 356 37 267 169 c
179 302 135 494 135 745 c
135 997 179 1189 267 1321 c
356 1454 484 1520 651 1520 c

ce} _d
/one{1303 0 225 0 1114 1493 sc
254 170 m
584 170 l
584 1309 l
225 1237 l
225 1421 l
582 1493 l
784 1493 l
784 170 l
1114 170 l
1114 0 l
254 0 l
254 170 l

ce} _d
/two{1303 0 150 0 1098 1520 sc
393 170 m
1098 170 l
1098 0 l
150 0 l
150 170 l
227 249 331 356 463 489 c
596 623 679 709 713 748 c
778 821 823 882 848 932 c
874 983 887 1032 887 1081 c
887 1160 859 1225 803 1275 c
748 1325 675 1350 586 1350 c
523 1350 456 1339 385 1317 c
315 1295 240 1262 160 1217 c
160 1421 l
241 1454 317 1478 388 1495 c
459 1512 523 1520 582 1520 c
737 1520 860 1481 952 1404 c
1044 1327 1090 1223 1090 1094 c
1090 1033 1078 974 1055 919 c
1032 864 991 800 930 725 c
913 706 860 650 771 557 c
682 465 556 336 393 170 c

ce} _d
/five{1303 0 158 -29 1124 1493 sc
221 1493 m
1014 1493 l
1014 1323 l
406 1323 l
406 957 l
435 967 465 974 494 979 c
523 984 553 987 582 987 c
749 987 881 941 978 850 c
1075 759 1124 635 1124 479 c
1124 318 1074 193 974 104 c
874 15 733 -29 551 -29 c
488 -29 424 -24 359 -13 c
294 -2 227 14 158 35 c
158 238 l
218 205 280 181 344 165 c
408 149 476 141 547 141 c
662 141 754 171 821 232 c
888 293 922 375 922 479 c
922 583 888 665 821 726 c
754 787 662 817 547 817 c
493 817 439 811 385 799 c
332 787 277 768 221 743 c
221 1493 l

ce} _d
/seven{1303 0 168 0 1128 1493 sc
168 1493 m
1128 1493 l
1128 1407 l
586 0 l
375 0 l
885 1323 l
168 1323 l
168 1493 l

ce} _d
/eight{1303 0 139 -29 1163 1520 sc
651 709 m
555 709 479 683 424 632 c
369 581 342 510 342 420 c
342 330 369 259 424 208 c
479 157 555 131 651 131 c
747 131 823 157 878 208 c
933 260 961 331 961 420 c
961 510 933 581 878 632 c
823 683 748 709 651 709 c

449 795 m
362 816 295 857 246 916 c
198 975 174 1048 174 1133 c
174 1252 216 1347 301 1416 c
386 1485 503 1520 651 1520 c
800 1520 916 1485 1001 1416 c
1086 1347 1128 1252 1128 1133 c
1128 1048 1104 975 1055 916 c
1007 857 940 816 854 795 c
951 772 1027 728 1081 662 c
1136 596 1163 515 1163 420 c
1163 275 1119 164 1030 87 c
942 10 816 -29 651 -29 c
486 -29 360 10 271 87 c
183 164 139 275 139 420 c
139 515 166 596 221 662 c
276 728 352 772 449 795 c

375 1114 m
375 1037 399 976 447 933 c
496 890 564 868 651 868 c
738 868 805 890 854 933 c
903 976 928 1037 928 1114 c
928 1191 903 1252 854 1295 c
805 1338 738 1360 651 1360 c
564 1360 496 1338 447 1295 c
399 1252 375 1191 375 1114 c

ce} _d
/nine{1303 0 129 -29 1159 1520 sc
225 31 m
225 215 l
276 191 327 173 379 160 c
431 147 482 141 532 141 c
665 141 767 186 837 275 c
908 365 948 501 958 684 c
919 627 870 583 811 552 c
752 521 686 506 614 506 c
465 506 346 551 259 641 c
172 732 129 855 129 1012 c
129 1165 174 1288 265 1381 c
356 1474 476 1520 627 1520 c
800 1520 931 1454 1022 1321 c
1113 1189 1159 997 1159 745 c
1159 510 1103 322 991 181 c
880 41 730 -29 541 -29 c
490 -29 439 -24 387 -14 c
335 -4 281 11 225 31 c

627 664 m
718 664 789 695 842 757 c
895 819 922 904 922 1012 c
922 1119 895 1204 842 1266 c
789 1329 718 1360 627 1360 c
536 1360 464 1329 411 1266 c
358 1204 332 1119 332 1012 c
332 904 358 819 411 757 c
464 695 536 664 627 664 c

ce} _d
/F{1178 0 201 0 1059 1493 sc
201 1493 m
1059 1493 l
1059 1323 l
403 1323 l
403 883 l
995 883 l
995 713 l
403 713 l
403 0 l
201 0 l
201 1493 l

ce} _d
/N{1532 0 201 0 1331 1493 sc
201 1493 m
473 1493 l
1135 244 l
1135 1493 l
1331 1493 l
1331 0 l
1059 0 l
397 1249 l
397 0 l
201 0 l
201 1493 l

ce} _d
/P{1235 0 201 0 1165 1493 sc
403 1327 m
403 766 l
657 766 l
751 766 824 790 875 839 c
926 888 952 957 952 1047 c
952 1136 926 1205 875 1254 c
824 1303 751 1327 657 1327 c
403 1327 l

201 1493 m
657 1493 l
824 1493 951 1455 1036 1379 c
1122 1304 1165 1193 1165 1047 c
1165 900 1122 788 1036 713 c
951 638 824 600 657 600 c
403 600 l
403 0 l
201 0 l
201 1493 l

ce} _d
/T{1251 0 -6 0 1257 1493 sc
-6 1493 m
1257 1493 l
1257 1323 l
727 1323 l
727 0 l
524 0 l
524 1323 l
-6 1323 l
-6 1493 l

ce} _d
/a{1255 0 123 -29 1069 1147 sc
702 563 m
553 563 450 546 393 512 c
336 478 307 420 307 338 c
307 273 328 221 371 182 c
414 144 473 125 547 125 c
649 125 731 161 792 233 c
854 306 885 402 885 522 c
885 563 l
702 563 l

1069 639 m
1069 0 l
885 0 l
885 170 l
843 102 791 52 728 19 c
665 -13 589 -29 498 -29 c
383 -29 292 3 224 67 c
157 132 123 218 123 326 c
123 452 165 547 249 611 c
334 675 460 707 627 707 c
885 707 l
885 725 l
885 810 857 875 801 921 c
746 968 668 991 567 991 c
503 991 441 983 380 968 c
319 953 261 930 205 899 c
205 1069 l
272 1095 338 1114 401 1127 c
464 1140 526 1147 586 1147 c
748 1147 869 1105 949 1021 c
1029 937 1069 810 1069 639 c

ce} _d
/c{1126 0 113 -29 999 1147 sc
999 1077 m
999 905 l
947 934 895 955 842 969 c
790 984 737 991 684 991 c
565 991 472 953 406 877 c
340 802 307 696 307 559 c
307 422 340 316 406 240 c
472 165 565 127 684 127 c
737 127 790 134 842 148 c
895 163 947 184 999 213 c
999 43 l
948 19 894 1 839 -11 c
784 -23 726 -29 664 -29 c
495 -29 361 24 262 130 c
163 236 113 379 113 559 c
113 742 163 885 263 990 c
364 1095 501 1147 676 1147 c
733 1147 788 1141 842 1129 c
896 1118 948 1100 999 1077 c

ce} _d
/e{1260 0 113 -29 1151 1147 sc
1151 606 m
1151 516 l
305 516 l
313 389 351 293 419 226 c
488 160 583 127 705 127 c
776 127 844 136 910 153 c
977 170 1043 196 1108 231 c
1108 57 l
1042 29 974 8 905 -7 c
836 -22 765 -29 694 -29 c
515 -29 374 23 269 127 c
165 231 113 372 113 549 c
113 732 162 878 261 985 c
360 1093 494 1147 662 1147 c
813 1147 932 1098 1019 1001 c
1107 904 1151 773 1151 606 c

967 660 m
966 761 937 841 882 901 c
827 961 755 991 664 991 c
561 991 479 962 417 904 c
356 846 320 764 311 659 c
967 660 l

ce} _d
/i{569 0 193 0 377 1556 sc
193 1120 m
377 1120 l
377 0 l
193 0 l
193 1120 l

193 1556 m
377 1556 l
377 1323 l
193 1323 l
193 1556 l

ce} _d
/l{569 0 193 0 377 1556 sc
193 1556 m
377 1556 l
377 0 l
193 0 l
193 1556 l

ce} _d
/n{1298 0 186 0 1124 1147 sc
1124 676 m
1124 0 l
940 0 l
940 670 l
940 776 919 855 878 908 c
837 961 775 987 692 987 c
593 987 514 955 457 892 c
400 829 371 742 371 633 c
371 0 l
186 0 l
186 1120 l
371 1120 l
371 946 l
415 1013 467 1064 526 1097 c
586 1130 655 1147 733 1147 c
862 1147 959 1107 1025 1027 c
1091 948 1124 831 1124 676 c

ce} _d
/o{1253 0 113 -29 1141 1147 sc
627 991 m
528 991 450 952 393 875 c
336 798 307 693 307 559 c
307 425 335 319 392 242 c
449 165 528 127 627 127 c
725 127 803 166 860 243 c
917 320 946 426 946 559 c
946 692 917 797 860 874 c
803 952 725 991 627 991 c

627 1147 m
787 1147 913 1095 1004 991 c
1095 887 1141 743 1141 559 c
1141 376 1095 232 1004 127 c
913 23 787 -29 627 -29 c
466 -29 340 23 249 127 c
158 232 113 376 113 559 c
113 743 158 887 249 991 c
340 1095 466 1147 627 1147 c

ce} _d
/q{1300 0 113 -426 1114 1147 sc
303 559 m
303 424 331 317 386 240 c
442 163 519 125 616 125 c
713 125 790 163 846 240 c
902 317 930 424 930 559 c
930 694 902 800 846 877 c
790 954 713 993 616 993 c
519 993 442 954 386 877 c
331 800 303 694 303 559 c

930 168 m
891 101 842 52 783 19 c
724 -13 654 -29 571 -29 c
436 -29 325 25 240 133 c
155 241 113 383 113 559 c
113 735 155 877 240 985 c
325 1093 436 1147 571 1147 c
654 1147 724 1131 783 1098 c
842 1066 891 1017 930 950 c
930 1120 l
1114 1120 l
1114 -426 l
930 -426 l
930 168 l

ce} _d
/r{842 0 186 0 842 1147 sc
842 948 m
821 960 799 969 774 974 c
750 980 723 983 694 983 c
590 983 510 949 454 881 c
399 814 371 717 371 590 c
371 0 l
186 0 l
186 1120 l
371 1120 l
371 946 l
410 1014 460 1064 522 1097 c
584 1130 659 1147 748 1147 c
761 1147 775 1146 790 1144 c
805 1143 822 1140 841 1137 c
842 948 l

ce} _d
/s{1067 0 111 -29 967 1147 sc
907 1087 m
907 913 l
855 940 801 960 745 973 c
689 986 631 993 571 993 c
480 993 411 979 365 951 c
320 923 297 881 297 825 c
297 782 313 749 346 724 c
379 700 444 677 543 655 c
606 641 l
737 613 829 573 884 522 c
939 471 967 400 967 309 c
967 205 926 123 843 62 c
761 1 648 -29 504 -29 c
444 -29 381 -23 316 -11 c
251 0 183 18 111 41 c
111 231 l
179 196 246 169 312 151 c
378 134 443 125 508 125 c
595 125 661 140 708 169 c
755 199 778 241 778 295 c
778 345 761 383 727 410 c
694 437 620 462 506 487 c
442 502 l
328 526 246 563 195 612 c
144 662 119 730 119 817 c
119 922 156 1004 231 1061 c
306 1118 412 1147 549 1147 c
617 1147 681 1142 741 1132 c
801 1122 856 1107 907 1087 c

ce} _d
/t{803 0 55 0 754 1438 sc
375 1438 m
375 1120 l
754 1120 l
754 977 l
375 977 l
375 369 l
375 278 387 219 412 193 c
437 167 488 154 565 154 c
754 154 l
754 0 l
565 0 l
423 0 325 26 271 79 c
217 132 190 229 190 369 c
190 977 l
55 977 l
55 1120 l
190 1120 l
190 1438 l
375 1438 l

ce} _d
/u{1298 0 174 -29 1112 1147 sc
174 442 m
174 1120 l
358 1120 l
358 449 l
358 343 379 263 420 210 c
461 157 523 131 606 131 c
705 131 784 163 841 226 c
899 289 928 376 928 485 c
928 1120 l
1112 1120 l
1112 0 l
928 0 l
928 172 l
883 104 831 53 772 20 c
713 -13 645 -29 567 -29 c
438 -29 341 11 274 91 c
207 171 174 288 174 442 c

637 1147 m
637 1147 l

ce} _d
/y{1212 0 61 -426 1151 1120 sc
659 -104 m
607 -237 556 -324 507 -365 c
458 -406 392 -426 309 -426 c
162 -426 l
162 -272 l
270 -272 l
321 -272 360 -260 388 -236 c
416 -212 447 -155 481 -66 c
514 18 l
61 1120 l
256 1120 l
606 244 l
956 1120 l
1151 1120 l
659 -104 l

ce} _d
end readonly def

/BuildGlyph {
 exch begin
 CharStrings exch
 2 copy known not {pop /.notdef} if
 true 3 1 roll get exec
 end
} _d

/BuildChar {
 1 index /Encoding get exch get
 1 index /BuildGlyph get exec
} _d

FontName currentdict end definefont pop
end
%%EndProlog
mpldict begin
90 223.2 translate
432 345.6 0 0 clipbox
gsave
0 0 m
432 0 l
432 345.6 l
0 345.6 l
0 0 l
cl
grestore
gsave
63.55 46.3 m
421.2 46.3 l
421.2 334.8 l
63.55 334.8 l
cl
1.000 setgray
fill
grestore
2.000 setlinewidth
0 setlinejoin
0 setlinecap
[] 0 setdash
0.122 0.467 0.706 setrgbcolor
gsave
357.65 288.5 63.55 46.3 clipbox
79.806818 46.3 m
79.806818 183.680952 l
104.817308 183.680952 l
104.817308 198.945503 l
129.827797 198.945503 l
129.827797 168.416402 l
154.838287 168.416402 l
154.838287 107.358201 l
179.848776 107.358201 l
179.848776 229.474603 l
204.859266 229.474603 l
204.859266 183.680952 l
229.869755 183.680952 l
229.869755 229.474603 l
254.880245 229.474603 l
254.880245 321.061905 l
279.890734 321.061905 l
279.890734 107.358201 l
304.901224 107.358201 l
304.901224 168.416402 l
329.911713 168.416402 l
329.911713 122.622751 l
354.922203 122.622751 l
354.922203 107.358201 l
379.932692 107.358201 l
379.932692 305.797354 l
404.943182 305.797354 l
404.943182 46.3 l
379.932692 46.3 l
379.932692 46.3 l
354.922203 46.3 l
354.922203 46.3 l
329.911713 46.3 l
329.911713 46.3 l
304.901224 46.3 l
304.901224 46.3 l
279.890734 46.3 l
279.890734 46.3 l
254.880245 46.3 l
254.880245 46.3 l
229.869755 46.3 l
229.869755 46.3 l
204.859266 46.3 l
204.859266 46.3 l
179.848776 46.3 l
179.848776 46.3 l
154.838287 46.3 l
154.838287 46.3 l
129.827797 46.3 l
129.827797 46.3 l
104.817308 46.3 l
104.817308 46.3 l
cl
gsave
1.000 setgray
fill
grestore
  << /PatternType 1
     /PaintType 2
     /TilingType 2
     /BBox[0 0 72 72]
     /XStep 72
     /YStep 72

     /PaintProc {
        pop
        1.000000 setlinewidth
-36 36 m
36 108 l
-33 33 m
39 105 l
-30 30 m
42 102 l
-27 27 m
45 99 l
-24 24 m
48 96 l
-21 21 m
51 93 l
-18 18 m
54 90 l
-15 15 m
57 87 l
-12 12 m
60 84 l
-9 9 m
63 81 l
-6 6 m
66 78 l
-3 3 m
69 75 l
0 0 m
72 72 l
3 -3 m
75 69 l
6 -6 m
78 66 l
9 -9 m
81 63 l
12 -12 m
84 60 l
15 -15 m
87 57 l
18 -18 m
90 54 l
21 -21 m
93 51 l
24 -24 m
96 48 l
27 -27 m
99 45 l
30 -30 m
102 42 l
33 -33 m
105 39 l
36 -36 m
108 36 l

        gsave
        fill
        grestore
        stroke
     } bind
   >>
   matrix
   0.0 345.600000 translate
   makepattern
   /H0 exch def
gsave
0.121569 0.466667 0.705882 H0 setpattern fill grestore
stroke
grestore
1.000 0.498 0.055 setrgbcolor
gsave
357.65 288.5 63.55 46.3 clipbox
79.806818 46.3 m
79.806818 122.622751 l
104.817308 122.622751 l
104.817308 198.945503 l
129.827797 198.945503 l
129.827797 122.622751 l
154.838287 122.622751 l
154.838287 76.829101 l
179.848776 76.829101 l
179.848776 183.680952 l
204.859266 183.680952 l
204.859266 122.622751 l
229.869755 122.622751 l
229.869755 137.887302 l
254.880245 137.887302 l
254.880245 137.887302 l
279.890734 137.887302 l
279.890734 61.56455 l
304.901224 61.56455 l
304.901224 107.358201 l
329.911713 107.358201 l
329.911713 76.829101 l
354.922203 76.829101 l
354.922203 76.829101 l
379.932692 76.829101 l
379.932692 92.093651 l
404.943182 92.093651 l
404.943182 46.3 l
379.932692 46.3 l
379.932692 46.3 l
354.922203 46.3 l
354.922203 46.3 l
329.911713 46.3 l
329.911713 46.3 l
304.901224 46.3 l
304.901224 46.3 l
279.890734 46.3 l
279.890734 46.3 l
254.880245 46.3 l
254.880245 46.3 l
229.869755 46.3 l
229.869755 46.3 l
204.859266 46.3 l
204.859266 46.3 l
179.848776 46.3 l
179.848776 46.3 l
154.838287 46.3 l
154.838287 46.3 l
129.827797 46.3 l
129.827797 46.3 l
104.817308 46.3 l
104.817308 46.3 l
cl
gsave
1.000 setgray
fill
grestore
gsave
1.000000 0.498039 0.054902 H0 setpattern fill grestore
stroke
grestore
1.200 setlinewidth
1 setlinejoin
0.000 setgray
gsave
/o {
gsave
newpath
translate
1.2 setlinewidth
1 setlinejoin

0 setlinecap

0 0 m
0 3.5 l

gsave
0.000 setgray
fill
grestore
stroke
grestore
} bind def
122.346 46.3 o
grestore
gsave
/o {
gsave
newpath
translate
1.2 setlinewidth
1 setlinejoin

0 setlinecap

0 0 m
0 -3.5 l

gsave
0.000 setgray
fill
grestore
stroke
grestore
} bind def
122.346 334.8 o
grestore
/DejaVuSans 14.000 selectfont
gsave

102.306469 32.159375 translate
0.000000 rotate
0.000000 0 m /zero glyphshow
8.907227 0 m /period glyphshow
13.357422 0 m /zero glyphshow
22.264648 0 m /eight glyphshow
31.171875 0 m /eight glyphshow
grestore
gsave
/o {
gsave
newpath
translate
1.2 setlinewidth
1 setlinejoin

0 setlinecap

0 0 m
0 3.5 l

gsave
0.000 setgray
fill
grestore
stroke
grestore
} bind def
200.801 46.3 o
grestore
gsave
/o {
gsave
newpath
translate
1.2 setlinewidth
1 setlinejoin

0 setlinecap

0 0 m
0 -3.5 l

gsave
0.000 setgray
fill
grestore
stroke
grestore
} bind def
200.801 334.8 o
grestore
gsave

180.762230 32.159375 translate
0.000000 rotate
0.000000 0 m /zero glyphshow
8.907227 0 m /period glyphshow
13.357422 0 m /zero glyphshow
22.264648 0 m /eight glyphshow
31.171875 0 m /nine glyphshow
grestore
gsave
/o {
gsave
newpath
translate
1.2 setlinewidth
1 setlinejoin

0 setlinecap

0 0 m
0 3.5 l

gsave
0.000 setgray
fill
grestore
stroke
grestore
} bind def
279.257 46.3 o
grestore
gsave
/o {
gsave
newpath
translate
1.2 setlinewidth
1 setlinejoin

0 setlinecap

0 0 m
0 -3.5 l

gsave
0.000 setgray
fill
grestore
stroke
grestore
} bind def
279.257 334.8 o
grestore
gsave

259.217991 32.159375 translate
0.000000 rotate
0.000000 0 m /zero glyphshow
8.907227 0 m /period glyphshow
13.357422 0 m /zero glyphshow
22.264648 0 m /nine glyphshow
31.171875 0 m /zero glyphshow
grestore
gsave
/o {
gsave
newpath
translate
1.2 setlinewidth
1 setlinejoin

0 setlinecap

0 0 m
0 3.5 l

gsave
0.000 setgray
fill
grestore
stroke
grestore
} bind def
357.713 46.3 o
grestore
gsave
/o {
gsave
newpath
translate
1.2 setlinewidth
1 setlinejoin

0 setlinecap

0 0 m
0 -3.5 l

gsave
0.000 setgray
fill
grestore
stroke
grestore
} bind def
357.713 334.8 o
grestore
gsave

337.673751 32.159375 translate
0.000000 rotate
0.000000 0 m /zero glyphshow
8.907227 0 m /period glyphshow
13.357422 0 m /zero glyphshow
22.264648 0 m /nine glyphshow
31.171875 0 m /one glyphshow
grestore
gsave
/o {
gsave
newpath
translate
1.2 setlinewidth
1 setlinejoin

0 setlinecap

0 0 m
0 2 l

gsave
0.000 setgray
fill
grestore
stroke
grestore
} bind def
75.2721 46.3 o
grestore
gsave
/o {
gsave
newpath
translate
1.2 setlinewidth
1 setlinejoin

0 setlinecap

0 0 m
0 -2 l

gsave
0.000 setgray
fill
grestore
stroke
grestore
} bind def
75.2721 334.8 o
grestore
gsave
/o {
gsave
newpath
translate
1.2 setlinewidth
1 setlinejoin

0 setlinecap

0 0 m
0 2 l

gsave
0.000 setgray
fill
grestore
stroke
grestore
} bind def
90.9632 46.3 o
grestore
gsave
/o {
gsave
newpath
translate
1.2 setlinewidth
1 setlinejoin

0 setlinecap

0 0 m
0 -2 l

gsave
0.000 setgray
fill
grestore
stroke
grestore
} bind def
90.9632 334.8 o
grestore
gsave
/o {
gsave
newpath
translate
1.2 setlinewidth
1 setlinejoin

0 setlinecap

0 0 m
0 2 l

gsave
0.000 setgray
fill
grestore
stroke
grestore
} bind def
106.654 46.3 o
grestore
gsave
/o {
gsave
newpath
translate
1.2 setlinewidth
1 setlinejoin

0 setlinecap

0 0 m
0 -2 l

gsave
0.000 setgray
fill
grestore
stroke
grestore
} bind def
106.654 334.8 o
grestore
gsave
/o {
gsave
newpath
translate
1.2 setlinewidth
1 setlinejoin

0 setlinecap

0 0 m
0 2 l

gsave
0.000 setgray
fill
grestore
stroke
grestore
} bind def
138.037 46.3 o
grestore
gsave
/o {
gsave
newpath
translate
1.2 setlinewidth
1 setlinejoin

0 setlinecap

0 0 m
0 -2 l

gsave
0.000 setgray
fill
grestore
stroke
grestore
} bind def
138.037 334.8 o
grestore
gsave
/o {
gsave
newpath
translate
1.2 setlinewidth
1 setlinejoin

0 setlinecap

0 0 m
0 2 l

gsave
0.000 setgray
fill
grestore
stroke
grestore
} bind def
153.728 46.3 o
grestore
gsave
/o {
gsave
newpath
translate
1.2 setlinewidth
1 setlinejoin

0 setlinecap

0 0 m
0 -2 l

gsave
0.000 setgray
fill
grestore
stroke
grestore
} bind def
153.728 334.8 o
grestore
gsave
/o {
gsave
newpath
translate
1.2 setlinewidth
1 setlinejoin

0 setlinecap

0 0 m
0 2 l

gsave
0.000 setgray
fill
grestore
stroke
grestore
} bind def
169.419 46.3 o
grestore
gsave
/o {
gsave
newpath
translate
1.2 setlinewidth
1 setlinejoin

0 setlinecap

0 0 m
0 -2 l

gsave
0.000 setgray
fill
grestore
stroke
grestore
} bind def
169.419 334.8 o
grestore
gsave
/o {
gsave
newpath
translate
1.2 setlinewidth
1 setlinejoin

0 setlinecap

0 0 m
0 2 l

gsave
0.000 setgray
fill
grestore
stroke
grestore
} bind def
185.11 46.3 o
grestore
gsave
/o {
gsave
newpath
translate
1.2 setlinewidth
1 setlinejoin

0 setlinecap

0 0 m
0 -2 l

gsave
0.000 setgray
fill
grestore
stroke
grestore
} bind def
185.11 334.8 o
grestore
gsave
/o {
gsave
newpath
translate
1.2 setlinewidth
1 setlinejoin

0 setlinecap

0 0 m
0 2 l

gsave
0.000 setgray
fill
grestore
stroke
grestore
} bind def
216.492 46.3 o
grestore
gsave
/o {
gsave
newpath
translate
1.2 setlinewidth
1 setlinejoin

0 setlinecap

0 0 m
0 -2 l

gsave
0.000 setgray
fill
grestore
stroke
grestore
} bind def
216.492 334.8 o
grestore
gsave
/o {
gsave
newpath
translate
1.2 setlinewidth
1 setlinejoin

0 setlinecap

0 0 m
0 2 l

gsave
0.000 setgray
fill
grestore
stroke
grestore
} bind def
232.184 46.3 o
grestore
gsave
/o {
gsave
newpath
translate
1.2 setlinewidth
1 setlinejoin

0 setlinecap

0 0 m
0 -2 l

gsave
0.000 setgray
fill
grestore
stroke
grestore
} bind def
232.184 334.8 o
grestore
gsave
/o {
gsave
newpath
translate
1.2 setlinewidth
1 setlinejoin

0 setlinecap

0 0 m
0 2 l

gsave
0.000 setgray
fill
grestore
stroke
grestore
} bind def
247.875 46.3 o
grestore
gsave
/o {
gsave
newpath
translate
1.2 setlinewidth
1 setlinejoin

0 setlinecap

0 0 m
0 -2 l

gsave
0.000 setgray
fill
grestore
stroke
grestore
} bind def
247.875 334.8 o
grestore
gsave
/o {
gsave
newpath
translate
1.2 setlinewidth
1 setlinejoin

0 setlinecap

0 0 m
0 2 l

gsave
0.000 setgray
fill
grestore
stroke
grestore
} bind def
263.566 46.3 o
grestore
gsave
/o {
gsave
newpath
translate
1.2 setlinewidth
1 setlinejoin

0 setlinecap

0 0 m
0 -2 l

gsave
0.000 setgray
fill
grestore
stroke
grestore
} bind def
263.566 334.8 o
grestore
gsave
/o {
gsave
newpath
translate
1.2 setlinewidth
1 setlinejoin

0 setlinecap

0 0 m
0 2 l

gsave
0.000 setgray
fill
grestore
stroke
grestore
} bind def
294.948 46.3 o
grestore
gsave
/o {
gsave
newpath
translate
1.2 setlinewidth
1 setlinejoin

0 setlinecap

0 0 m
0 -2 l

gsave
0.000 setgray
fill
grestore
stroke
grestore
} bind def
294.948 334.8 o
grestore
gsave
/o {
gsave
newpath
translate
1.2 setlinewidth
1 setlinejoin

0 setlinecap

0 0 m
0 2 l

gsave
0.000 setgray
fill
grestore
stroke
grestore
} bind def
310.639 46.3 o
grestore
gsave
/o {
gsave
newpath
translate
1.2 setlinewidth
1 setlinejoin

0 setlinecap

0 0 m
0 -2 l

gsave
0.000 setgray
fill
grestore
stroke
grestore
} bind def
310.639 334.8 o
grestore
gsave
/o {
gsave
newpath
translate
1.2 setlinewidth
1 setlinejoin

0 setlinecap

0 0 m
0 2 l

gsave
0.000 setgray
fill
grestore
stroke
grestore
} bind def
326.331 46.3 o
grestore
gsave
/o {
gsave
newpath
translate
1.2 setlinewidth
1 setlinejoin

0 setlinecap

0 0 m
0 -2 l

gsave
0.000 setgray
fill
grestore
stroke
grestore
} bind def
326.331 334.8 o
grestore
gsave
/o {
gsave
newpath
translate
1.2 setlinewidth
1 setlinejoin

0 setlinecap

0 0 m
0 2 l

gsave
0.000 setgray
fill
grestore
stroke
grestore
} bind def
342.022 46.3 o
grestore
gsave
/o {
gsave
newpath
translate
1.2 setlinewidth
1 setlinejoin

0 setlinecap

0 0 m
0 -2 l

gsave
0.000 setgray
fill
grestore
stroke
grestore
} bind def
342.022 334.8 o
grestore
gsave
/o {
gsave
newpath
translate
1.2 setlinewidth
1 setlinejoin

0 setlinecap

0 0 m
0 2 l

gsave
0.000 setgray
fill
grestore
stroke
grestore
} bind def
373.404 46.3 o
grestore
gsave
/o {
gsave
newpath
translate
1.2 setlinewidth
1 setlinejoin

0 setlinecap

0 0 m
0 -2 l

gsave
0.000 setgray
fill
grestore
stroke
grestore
} bind def
373.404 334.8 o
grestore
gsave
/o {
gsave
newpath
translate
1.2 setlinewidth
1 setlinejoin

0 setlinecap

0 0 m
0 2 l

gsave
0.000 setgray
fill
grestore
stroke
grestore
} bind def
389.095 46.3 o
grestore
gsave
/o {
gsave
newpath
translate
1.2 setlinewidth
1 setlinejoin

0 setlinecap

0 0 m
0 -2 l

gsave
0.000 setgray
fill
grestore
stroke
grestore
} bind def
389.095 334.8 o
grestore
gsave
/o {
gsave
newpath
translate
1.2 setlinewidth
1 setlinejoin

0 setlinecap

0 0 m
0 2 l

gsave
0.000 setgray
fill
grestore
stroke
grestore
} bind def
404.786 46.3 o
grestore
gsave
/o {
gsave
newpath
translate
1.2 setlinewidth
1 setlinejoin

0 setlinecap

0 0 m
0 -2 l

gsave
0.000 setgray
fill
grestore
stroke
grestore
} bind def
404.786 334.8 o
grestore
gsave
/o {
gsave
newpath
translate
1.2 setlinewidth
1 setlinejoin

0 setlinecap

0 0 m
0 2 l

gsave
0.000 setgray
fill
grestore
stroke
grestore
} bind def
420.477 46.3 o
grestore
gsave
/o {
gsave
newpath
translate
1.2 setlinewidth
1 setlinejoin

0 setlinecap

0 0 m
0 -2 l

gsave
0.000 setgray
fill
grestore
stroke
grestore
} bind def
420.477 334.8 o
grestore
gsave

212.843750 14.612500 translate
0.000000 rotate
0.000000 0 m /T glyphshow
6.176758 0 m /e glyphshow
14.790039 0 m /s glyphshow
22.083984 0 m /t glyphshow
27.573242 0 m /space glyphshow
32.023438 0 m /l glyphshow
35.913086 0 m /o glyphshow
44.478516 0 m /s glyphshow
51.772461 0 m /s glyphshow
grestore
gsave
/o {
gsave
newpath
translate
1.2 setlinewidth
1 setlinejoin

0 setlinecap

0 0 m
3.5 0 l

gsave
0.000 setgray
fill
grestore
stroke
grestore
} bind def
63.55 46.3 o
grestore
gsave
/o {
gsave
newpath
translate
1.2 setlinewidth
1 setlinejoin

0 setlinecap

-0 0 m
-3.5 0 l

gsave
0.000 setgray
fill
grestore
stroke
grestore
} bind def
421.2 46.3 o
grestore
gsave

37.784375 40.979688 translate
0.000000 rotate
0.000000 0 m /zero glyphshow
8.907227 0 m /period glyphshow
13.357422 0 m /zero glyphshow
grestore
gsave
/o {
gsave
newpath
translate
1.2 setlinewidth
1 setlinejoin

0 setlinecap

0 0 m
3.5 0 l

gsave
0.000 setgray
fill
grestore
stroke
grestore
} bind def
63.55 84.4614 o
grestore
gsave
/o {
gsave
newpath
translate
1.2 setlinewidth
1 setlinejoin

0 setlinecap

-0 0 m
-3.5 0 l

gsave
0.000 setgray
fill
grestore
stroke
grestore
} bind def
421.2 84.4614 o
grestore
gsave

37.784375 79.141063 translate
0.000000 rotate
0.000000 0 m /two glyphshow
8.907227 0 m /period glyphshow
13.357422 0 m /five glyphshow
grestore
gsave
/o {
gsave
newpath
translate
1.2 setlinewidth
1 setlinejoin

0 setlinecap

0 0 m
3.5 0 l

gsave
0.000 setgray
fill
grestore
stroke
grestore
} bind def
63.55 122.623 o
grestore
gsave
/o {
gsave
newpath
translate
1.2 setlinewidth
1 setlinejoin

0 setlinecap

-0 0 m
-3.5 0 l

gsave
0.000 setgray
fill
grestore
stroke
grestore
} bind def
421.2 122.623 o
grestore
gsave

37.784375 117.302439 translate
0.000000 rotate
0.000000 0 m /five glyphshow
8.907227 0 m /period glyphshow
13.357422 0 m /zero glyphshow
grestore
gsave
/o {
gsave
newpath
translate
1.2 setlinewidth
1 setlinejoin

0 setlinecap

0 0 m
3.5 0 l

gsave
0.000 setgray
fill
grestore
stroke
grestore
} bind def
63.55 160.784 o
grestore
gsave
/o {
gsave
newpath
translate
1.2 setlinewidth
1 setlinejoin

0 setlinecap

-0 0 m
-3.5 0 l

gsave
0.000 setgray
fill
grestore
stroke
grestore
} bind def
421.2 160.784 o
grestore
gsave

37.784375 155.463814 translate
0.000000 rotate
0.000000 0 m /seven glyphshow
8.907227 0 m /period glyphshow
13.357422 0 m /five glyphshow
grestore
gsave
/o {
gsave
newpath
translate
1.2 setlinewidth
1 setlinejoin

0 setlinecap

0 0 m
3.5 0 l

gsave
0.000 setgray
fill
grestore
stroke
grestore
} bind def
63.55 198.946 o
grestore
gsave
/o {
gsave
newpath
translate
1.2 setlinewidth
1 setlinejoin

0 setlinecap

-0 0 m
-3.5 0 l

gsave
0.000 setgray
fill
grestore
stroke
grestore
} bind def
421.2 198.946 o
grestore
gsave

28.878125 193.625190 translate
0.000000 rotate
0.000000 0 m /one glyphshow
8.907227 0 m /zero glyphshow
17.814453 0 m /period glyphshow
22.264648 0 m /zero glyphshow
grestore
gsave
/o {
gsave
newpath
translate
1.2 setlinewidth
1 setlinejoin

0 setlinecap

0 0 m
3.5 0 l

gsave
0.000 setgray
fill
grestore
stroke
grestore
} bind def
63.55 237.107 o
grestore
gsave
/o {
gsave
newpath
translate
1.2 setlinewidth
1 setlinejoin

0 setlinecap

-0 0 m
-3.5 0 l

gsave
0.000 setgray
fill
grestore
stroke
grestore
} bind def
421.2 237.107 o
grestore
gsave

28.878125 231.786566 translate
0.000000 rotate
0.000000 0 m /one glyphshow
8.907227 0 m /two glyphshow
17.814453 0 m /period glyphshow
22.264648 0 m /five glyphshow
grestore
gsave
/o {
gsave
newpath
translate
1.2 setlinewidth
1 setlinejoin

0 setlinecap

0 0 m
3.5 0 l

gsave
0.000 setgray
fill
grestore
stroke
grestore
} bind def
63.55 275.268 o
grestore
gsave
/o {
gsave
newpath
translate
1.2 setlinewidth
1 setlinejoin

0 setlinecap

-0 0 m
-3.5 0 l

gsave
0.000 setgray
fill
grestore
stroke
grestore
} bind def
421.2 275.268 o
grestore
gsave

28.878125 269.947941 translate
0.000000 rotate
0.000000 0 m /one glyphshow
8.907227 0 m /five glyphshow
17.814453 0 m /period glyphshow
22.264648 0 m /zero glyphshow
grestore
gsave
/o {
gsave
newpath
translate
1.2 setlinewidth
1 setlinejoin

0 setlinecap

0 0 m
3.5 0 l

gsave
0.000 setgray
fill
grestore
stroke
grestore
} bind def
63.55 313.43 o
grestore
gsave
/o {
gsave
newpath
translate
1.2 setlinewidth
1 setlinejoin

0 setlinecap

-0 0 m
-3.5 0 l

gsave
0.000 setgray
fill
grestore
stroke
grestore
} bind def
421.2 313.43 o
grestore
gsave

28.878125 308.109317 translate
0.000000 rotate
0.000000 0 m /one glyphshow
8.907227 0 m /seven glyphshow
17.814453 0 m /period glyphshow
22.264648 0 m /five glyphshow
grestore
gsave
/o {
gsave
newpath
translate
1.2 setlinewidth
1 setlinejoin

0 setlinecap

0 0 m
2 0 l

gsave
0.000 setgray
fill
grestore
stroke
grestore
} bind def
63.55 53.9323 o
grestore
gsave
/o {
gsave
newpath
translate
1.2 setlinewidth
1 setlinejoin

0 setlinecap

-0 0 m
-2 0 l

gsave
0.000 setgray
fill
grestore
stroke
grestore
} bind def
421.2 53.9323 o
grestore
gsave
/o {
gsave
newpath
translate
1.2 setlinewidth
1 setlinejoin

0 setlinecap

0 0 m
2 0 l

gsave
0.000 setgray
fill
grestore
stroke
grestore
} bind def
63.55 61.5646 o
grestore
gsave
/o {
gsave
newpath
translate
1.2 setlinewidth
1 setlinejoin

0 setlinecap

-0 0 m
-2 0 l

gsave
0.000 setgray
fill
grestore
stroke
grestore
} bind def
421.2 61.5646 o
grestore
gsave
/o {
gsave
newpath
translate
1.2 setlinewidth
1 setlinejoin

0 setlinecap

0 0 m
2 0 l

gsave
0.000 setgray
fill
grestore
stroke
grestore
} bind def
63.55 69.1968 o
grestore
gsave
/o {
gsave
newpath
translate
1.2 setlinewidth
1 setlinejoin

0 setlinecap

-0 0 m
-2 0 l

gsave
0.000 setgray
fill
grestore
stroke
grestore
} bind def
421.2 69.1968 o
grestore
gsave
/o {
gsave
newpath
translate
1.2 setlinewidth
1 setlinejoin

0 setlinecap

0 0 m
2 0 l

gsave
0.000 setgray
fill
grestore
stroke
grestore
} bind def
63.55 76.8291 o
grestore
gsave
/o {
gsave
newpath
translate
1.2 setlinewidth
1 setlinejoin

0 setlinecap

-0 0 m
-2 0 l

gsave
0.000 setgray
fill
grestore
stroke
grestore
} bind def
421.2 76.8291 o
grestore
gsave
/o {
gsave
newpath
translate
1.2 setlinewidth
1 setlinejoin

0 setlinecap

0 0 m
2 0 l

gsave
0.000 setgray
fill
grestore
stroke
grestore
} bind def
63.55 92.0937 o
grestore
gsave
/o {
gsave
newpath
translate
1.2 setlinewidth
1 setlinejoin

0 setlinecap

-0 0 m
-2 0 l

gsave
0.000 setgray
fill
grestore
stroke
grestore
} bind def
421.2 92.0937 o
grestore
gsave
/o {
gsave
newpath
translate
1.2 setlinewidth
1 setlinejoin

0 setlinecap

0 0 m
2 0 l

gsave
0.000 setgray
fill
grestore
stroke
grestore
} bind def
63.55 99.7259 o
grestore
gsave
/o {
gsave
newpath
translate
1.2 setlinewidth
1 setlinejoin

0 setlinecap

-0 0 m
-2 0 l

gsave
0.000 setgray
fill
grestore
stroke
grestore
} bind def
421.2 99.7259 o
grestore
gsave
/o {
gsave
newpath
translate
1.2 setlinewidth
1 setlinejoin

0 setlinecap

0 0 m
2 0 l

gsave
0.000 setgray
fill
grestore
stroke
grestore
} bind def
63.55 107.358 o
grestore
gsave
/o {
gsave
newpath
translate
1.2 setlinewidth
1 setlinejoin

0 setlinecap

-0 0 m
-2 0 l

gsave
0.000 setgray
fill
grestore
stroke
grestore
} bind def
421.2 107.358 o
grestore
gsave
/o {
gsave
newpath
translate
1.2 setlinewidth
1 setlinejoin

0 setlinecap

0 0 m
2 0 l

gsave
0.000 setgray
fill
grestore
stroke
grestore
} bind def
63.55 114.99 o
grestore
gsave
/o {
gsave
newpath
translate
1.2 setlinewidth
1 setlinejoin

0 setlinecap

-0 0 m
-2 0 l

gsave
0.000 setgray
fill
grestore
stroke
grestore
} bind def
421.2 114.99 o
grestore
gsave
/o {
gsave
newpath
translate
1.2 setlinewidth
1 setlinejoin

0 setlinecap

0 0 m
2 0 l

gsave
0.000 setgray
fill
grestore
stroke
grestore
} bind def
63.55 130.255 o
grestore
gsave
/o {
gsave
newpath
translate
1.2 setlinewidth
1 setlinejoin

0 setlinecap

-0 0 m
-2 0 l

gsave
0.000 setgray
fill
grestore
stroke
grestore
} bind def
421.2 130.255 o
grestore
gsave
/o {
gsave
newpath
translate
1.2 setlinewidth
1 setlinejoin

0 setlinecap

0 0 m
2 0 l

gsave
0.000 setgray
fill
grestore
stroke
grestore
} bind def
63.55 137.887 o
grestore
gsave
/o {
gsave
newpath
translate
1.2 setlinewidth
1 setlinejoin

0 setlinecap

-0 0 m
-2 0 l

gsave
0.000 setgray
fill
grestore
stroke
grestore
} bind def
421.2 137.887 o
grestore
gsave
/o {
gsave
newpath
translate
1.2 setlinewidth
1 setlinejoin

0 setlinecap

0 0 m
2 0 l

gsave
0.000 setgray
fill
grestore
stroke
grestore
} bind def
63.55 145.52 o
grestore
gsave
/o {
gsave
newpath
translate
1.2 setlinewidth
1 setlinejoin

0 setlinecap

-0 0 m
-2 0 l

gsave
0.000 setgray
fill
grestore
stroke
grestore
} bind def
421.2 145.52 o
grestore
gsave
/o {
gsave
newpath
translate
1.2 setlinewidth
1 setlinejoin

0 setlinecap

0 0 m
2 0 l

gsave
0.000 setgray
fill
grestore
stroke
grestore
} bind def
63.55 153.152 o
grestore
gsave
/o {
gsave
newpath
translate
1.2 setlinewidth
1 setlinejoin

0 setlinecap

-0 0 m
-2 0 l

gsave
0.000 setgray
fill
grestore
stroke
grestore
} bind def
421.2 153.152 o
grestore
gsave
/o {
gsave
newpath
translate
1.2 setlinewidth
1 setlinejoin

0 setlinecap

0 0 m
2 0 l

gsave
0.000 setgray
fill
grestore
stroke
grestore
} bind def
63.55 168.416 o
grestore
gsave
/o {
gsave
newpath
translate
1.2 setlinewidth
1 setlinejoin

0 setlinecap

-0 0 m
-2 0 l

gsave
0.000 setgray
fill
grestore
stroke
grestore
} bind def
421.2 168.416 o
grestore
gsave
/o {
gsave
newpath
translate
1.2 setlinewidth
1 setlinejoin

0 setlinecap

0 0 m
2 0 l

gsave
0.000 setgray
fill
grestore
stroke
grestore
} bind def
63.55 176.049 o
grestore
gsave
/o {
gsave
newpath
translate
1.2 setlinewidth
1 setlinejoin

0 setlinecap

-0 0 m
-2 0 l

gsave
0.000 setgray
fill
grestore
stroke
grestore
} bind def
421.2 176.049 o
grestore
gsave
/o {
gsave
newpath
translate
1.2 setlinewidth
1 setlinejoin

0 setlinecap

0 0 m
2 0 l

gsave
0.000 setgray
fill
grestore
stroke
grestore
} bind def
63.55 183.681 o
grestore
gsave
/o {
gsave
newpath
translate
1.2 setlinewidth
1 setlinejoin

0 setlinecap

-0 0 m
-2 0 l

gsave
0.000 setgray
fill
grestore
stroke
grestore
} bind def
421.2 183.681 o
grestore
gsave
/o {
gsave
newpath
translate
1.2 setlinewidth
1 setlinejoin

0 setlinecap

0 0 m
2 0 l

gsave
0.000 setgray
fill
grestore
stroke
grestore
} bind def
63.55 191.313 o
grestore
gsave
/o {
gsave
newpath
translate
1.2 setlinewidth
1 setlinejoin

0 setlinecap

-0 0 m
-2 0 l

gsave
0.000 setgray
fill
grestore
stroke
grestore
} bind def
421.2 191.313 o
grestore
gsave
/o {
gsave
newpath
translate
1.2 setlinewidth
1 setlinejoin

0 setlinecap

0 0 m
2 0 l

gsave
0.000 setgray
fill
grestore
stroke
grestore
} bind def
63.55 206.578 o
grestore
gsave
/o {
gsave
newpath
translate
1.2 setlinewidth
1 setlinejoin

0 setlinecap

-0 0 m
-2 0 l

gsave
0.000 setgray
fill
grestore
stroke
grestore
} bind def
421.2 206.578 o
grestore
gsave
/o {
gsave
newpath
translate
1.2 setlinewidth
1 setlinejoin

0 setlinecap

0 0 m
2 0 l

gsave
0.000 setgray
fill
grestore
stroke
grestore
} bind def
63.55 214.21 o
grestore
gsave
/o {
gsave
newpath
translate
1.2 setlinewidth
1 setlinejoin

0 setlinecap

-0 0 m
-2 0 l

gsave
0.000 setgray
fill
grestore
stroke
grestore
} bind def
421.2 214.21 o
grestore
gsave
/o {
gsave
newpath
translate
1.2 setlinewidth
1 setlinejoin

0 setlinecap

0 0 m
2 0 l

gsave
0.000 setgray
fill
grestore
stroke
grestore
} bind def
63.55 221.842 o
grestore
gsave
/o {
gsave
newpath
translate
1.2 setlinewidth
1 setlinejoin

0 setlinecap

-0 0 m
-2 0 l

gsave
0.000 setgray
fill
grestore
stroke
grestore
} bind def
421.2 221.842 o
grestore
gsave
/o {
gsave
newpath
translate
1.2 setlinewidth
1 setlinejoin

0 setlinecap

0 0 m
2 0 l

gsave
0.000 setgray
fill
grestore
stroke
grestore
} bind def
63.55 229.475 o
grestore
gsave
/o {
gsave
newpath
translate
1.2 setlinewidth
1 setlinejoin

0 setlinecap

-0 0 m
-2 0 l

gsave
0.000 setgray
fill
grestore
stroke
grestore
} bind def
421.2 229.475 o
grestore
gsave
/o {
gsave
newpath
translate
1.2 setlinewidth
1 setlinejoin

0 setlinecap

0 0 m
2 0 l

gsave
0.000 setgray
fill
grestore
stroke
grestore
} bind def
63.55 244.739 o
grestore
gsave
/o {
gsave
newpath
translate
1.2 setlinewidth
1 setlinejoin

0 setlinecap

-0 0 m
-2 0 l

gsave
0.000 setgray
fill
grestore
stroke
grestore
} bind def
421.2 244.739 o
grestore
gsave
/o {
gsave
newpath
translate
1.2 setlinewidth
1 setlinejoin

0 setlinecap

0 0 m
2 0 l

gsave
0.000 setgray
fill
grestore
stroke
grestore
} bind def
63.55 252.371 o
grestore
gsave
/o {
gsave
newpath
translate
1.2 setlinewidth
1 setlinejoin

0 setlinecap

-0 0 m
-2 0 l

gsave
0.000 setgray
fill
grestore
stroke
grestore
} bind def
421.2 252.371 o
grestore
gsave
/o {
gsave
newpath
translate
1.2 setlinewidth
1 setlinejoin

0 setlinecap

0 0 m
2 0 l

gsave
0.000 setgray
fill
grestore
stroke
grestore
} bind def
63.55 260.004 o
grestore
gsave
/o {
gsave
newpath
translate
1.2 setlinewidth
1 setlinejoin

0 setlinecap

-0 0 m
-2 0 l

gsave
0.000 setgray
fill
grestore
stroke
grestore
} bind def
421.2 260.004 o
grestore
gsave
/o {
gsave
newpath
translate
1.2 setlinewidth
1 setlinejoin

0 setlinecap

0 0 m
2 0 l

gsave
0.000 setgray
fill
grestore
stroke
grestore
} bind def
63.55 267.636 o
grestore
gsave
/o {
gsave
newpath
translate
1.2 setlinewidth
1 setlinejoin

0 setlinecap

-0 0 m
-2 0 l

gsave
0.000 setgray
fill
grestore
stroke
grestore
} bind def
421.2 267.636 o
grestore
gsave
/o {
gsave
newpath
translate
1.2 setlinewidth
1 setlinejoin

0 setlinecap

0 0 m
2 0 l

gsave
0.000 setgray
fill
grestore
stroke
grestore
} bind def
63.55 282.901 o
grestore
gsave
/o {
gsave
newpath
translate
1.2 setlinewidth
1 setlinejoin

0 setlinecap

-0 0 m
-2 0 l

gsave
0.000 setgray
fill
grestore
stroke
grestore
} bind def
421.2 282.901 o
grestore
gsave
/o {
gsave
newpath
translate
1.2 setlinewidth
1 setlinejoin

0 setlinecap

0 0 m
2 0 l

gsave
0.000 setgray
fill
grestore
stroke
grestore
} bind def
63.55 290.533 o
grestore
gsave
/o {
gsave
newpath
translate
1.2 setlinewidth
1 setlinejoin

0 setlinecap

-0 0 m
-2 0 l

gsave
0.000 setgray
fill
grestore
stroke
grestore
} bind def
421.2 290.533 o
grestore
gsave
/o {
gsave
newpath
translate
1.2 setlinewidth
1 setlinejoin

0 setlinecap

0 0 m
2 0 l

gsave
0.000 setgray
fill
grestore
stroke
grestore
} bind def
63.55 298.165 o
grestore
gsave
/o {
gsave
newpath
translate
1.2 setlinewidth
1 setlinejoin

0 setlinecap

-0 0 m
-2 0 l

gsave
0.000 setgray
fill
grestore
stroke
grestore
} bind def
421.2 298.165 o
grestore
gsave
/o {
gsave
newpath
translate
1.2 setlinewidth
1 setlinejoin

0 setlinecap

0 0 m
2 0 l

gsave
0.000 setgray
fill
grestore
stroke
grestore
} bind def
63.55 305.797 o
grestore
gsave
/o {
gsave
newpath
translate
1.2 setlinewidth
1 setlinejoin

0 setlinecap

-0 0 m
-2 0 l

gsave
0.000 setgray
fill
grestore
stroke
grestore
} bind def
421.2 305.797 o
grestore
gsave
/o {
gsave
newpath
translate
1.2 setlinewidth
1 setlinejoin

0 setlinecap

0 0 m
2 0 l

gsave
0.000 setgray
fill
grestore
stroke
grestore
} bind def
63.55 321.062 o
grestore
gsave
/o {
gsave
newpath
translate
1.2 setlinewidth
1 setlinejoin

0 setlinecap

-0 0 m
-2 0 l

gsave
0.000 setgray
fill
grestore
stroke
grestore
} bind def
421.2 321.062 o
grestore
gsave
/o {
gsave
newpath
translate
1.2 setlinewidth
1 setlinejoin

0 setlinecap

0 0 m
2 0 l

gsave
0.000 setgray
fill
grestore
stroke
grestore
} bind def
63.55 328.694 o
grestore
gsave
/o {
gsave
newpath
translate
1.2 setlinewidth
1 setlinejoin

0 setlinecap

-0 0 m
-2 0 l

gsave
0.000 setgray
fill
grestore
stroke
grestore
} bind def
421.2 328.694 o
grestore
gsave

21.971875 154.354687 translate
90.000000 rotate
0.000000 0 m /F glyphshow
7.052734 0 m /r glyphshow
12.558594 0 m /e glyphshow
21.171875 0 m /q glyphshow
30.058594 0 m /u glyphshow
38.931641 0 m /e glyphshow
47.544922 0 m /n glyphshow
56.417969 0 m /c glyphshow
64.115234 0 m /y glyphshow
grestore
0.800 setlinewidth
0 setlinejoin
2 setlinecap
gsave
63.55 46.3 m
63.55 334.8 l
stroke
grestore
gsave
421.2 46.3 m
421.2 334.8 l
stroke
grestore
gsave
63.55 46.3 m
421.2 46.3 l
stroke
grestore
gsave
63.55 334.8 m
421.2 334.8 l
stroke
grestore
1.000 setlinewidth
0 setlinecap
0.800 setgray
gsave
73.35 282.50625 m
194.43125 282.50625 l
196.297917 282.50625 197.23125 283.439583 197.23125 285.30625 c
197.23125 325 l
197.23125 326.866667 196.297917 327.8 194.43125 327.8 c
73.35 327.8 l
71.483333 327.8 70.55 326.866667 70.55 325 c
70.55 285.30625 l
70.55 283.439583 71.483333 282.50625 73.35 282.50625 c
cl
gsave
1.000 setgray
fill
grestore
stroke
grestore
2.000 setlinewidth
0.122 0.467 0.706 setrgbcolor
gsave
76.15 311.559375 m
104.15 311.559375 l
104.15 321.359375 l
76.15 321.359375 l
cl
gsave
1.000 setgray
fill
grestore
gsave
0.121569 0.466667 0.705882 H0 setpattern fill grestore
stroke
grestore
0.000 setgray
gsave

115.350000 311.559375 translate
0.000000 rotate
0.000000 0 m /P glyphshow
8.442383 0 m /F glyphshow
16.495117 0 m /N glyphshow
grestore
1.000 0.498 0.055 setrgbcolor
gsave
76.15 291.0125 m
104.15 291.0125 l
104.15 300.8125 l
76.15 300.8125 l
cl
gsave
1.000 setgray
fill
grestore
gsave
1.000000 0.498039 0.054902 H0 setpattern fill grestore
stroke
grestore
0.000 setgray
gsave

115.350000 291.012500 translate
0.000000 rotate
0.000000 0 m /P glyphshow
7.817383 0 m /a glyphshow
16.396484 0 m /r glyphshow
22.152344 0 m /t glyphshow
27.641602 0 m /i glyphshow
31.531250 0 m /c glyphshow
39.228516 0 m /l glyphshow
43.118164 0 m /e glyphshow
51.731445 0 m /N glyphshow
62.204102 0 m /e glyphshow
70.817383 0 m /t glyphshow
grestore

end
showpage
