%!PS-Adobe-3.0 EPSF-3.0
%%Title: inference.eps
%%Creator: Matplotlib v3.5.2, https://matplotlib.org/
%%CreationDate: Wed Jul 19 06:02:50 2023
%%Orientation: portrait
%%BoundingBox: 90 223 522 569
%%HiResBoundingBox: 90.000000 223.200000 522.000000 568.800000
%%EndComments
%%BeginProlog
/mpldict 11 dict def
mpldict begin
/_d { bind def } bind def
/m { moveto } _d
/l { lineto } _d
/r { rlineto } _d
/c { curveto } _d
/cl { closepath } _d
/ce { closepath eofill } _d
/box {
      m
      1 index 0 r
      0 exch r
      neg 0 r
      cl
    } _d
/clipbox {
      box
      clip
      newpath
    } _d
/sc { setcachedevice } _d
%!PS-Adobe-3.0 Resource-Font
%%Creator: Converted from TrueType to Type 3 by Matplotlib.
10 dict begin
/FontName /DejaVuSans def
/PaintType 0 def
/FontMatrix [0.00048828125 0 0 0.00048828125 0 0] def
/FontBBox [-2090 -948 3673 2524] def
/FontType 3 def
/Encoding [/space /parenleft /parenright /period /zero /one /two /three /four /five /six /seven /eight /nine /uni03BC /A /B /C /F /G /N /O /P /U /bracketleft /bracketright /a /c /e /f /g /h /i /j /l /m /n /p /r /s /t /v /z] def
/CharStrings 44 dict dup begin
/.notdef 0 def
/space{651 0 0 0 0 0 sc
ce} _d
/parenleft{799 0 176 -270 635 1554 sc
635 1554 m
546 1401 479 1249 436 1099 c
393 949 371 797 371 643 c
371 489 393 336 436 185 c
480 34 546 -117 635 -270 c
475 -270 l
375 -113 300 41 250 192 c
201 343 176 494 176 643 c
176 792 201 941 250 1092 c
299 1243 374 1397 475 1554 c
635 1554 l

ce} _d
/parenright{799 0 164 -270 623 1554 sc
164 1554 m
324 1554 l
424 1397 499 1243 548 1092 c
598 941 623 792 623 643 c
623 494 598 343 548 192 c
499 41 424 -113 324 -270 c
164 -270 l
253 -117 319 34 362 185 c
406 336 428 489 428 643 c
428 797 406 949 362 1099 c
319 1249 253 1401 164 1554 c

ce} _d
/period{651 0 219 0 430 254 sc
219 254 m
430 254 l
430 0 l
219 0 l
219 254 l

ce} _d
/zero{1303 0 135 -29 1167 1520 sc
651 1360 m
547 1360 469 1309 416 1206 c
364 1104 338 950 338 745 c
338 540 364 387 416 284 c
469 182 547 131 651 131 c
756 131 834 182 886 284 c
939 387 965 540 965 745 c
965 950 939 1104 886 1206 c
834 1309 756 1360 651 1360 c

651 1520 m
818 1520 946 1454 1034 1321 c
1123 1189 1167 997 1167 745 c
1167 494 1123 302 1034 169 c
946 37 818 -29 651 -29 c
484 -29 356 37 267 169 c
179 302 135 494 135 745 c
135 997 179 1189 267 1321 c
356 1454 484 1520 651 1520 c

ce} _d
/one{1303 0 225 0 1114 1493 sc
254 170 m
584 170 l
584 1309 l
225 1237 l
225 1421 l
582 1493 l
784 1493 l
784 170 l
1114 170 l
1114 0 l
254 0 l
254 170 l

ce} _d
/two{1303 0 150 0 1098 1520 sc
393 170 m
1098 170 l
1098 0 l
150 0 l
150 170 l
227 249 331 356 463 489 c
596 623 679 709 713 748 c
778 821 823 882 848 932 c
874 983 887 1032 887 1081 c
887 1160 859 1225 803 1275 c
748 1325 675 1350 586 1350 c
523 1350 456 1339 385 1317 c
315 1295 240 1262 160 1217 c
160 1421 l
241 1454 317 1478 388 1495 c
459 1512 523 1520 582 1520 c
737 1520 860 1481 952 1404 c
1044 1327 1090 1223 1090 1094 c
1090 1033 1078 974 1055 919 c
1032 864 991 800 930 725 c
913 706 860 650 771 557 c
682 465 556 336 393 170 c

ce} _d
/three{1303 0 156 -29 1139 1520 sc
831 805 m
928 784 1003 741 1057 676 c
1112 611 1139 530 1139 434 c
1139 287 1088 173 987 92 c
886 11 742 -29 555 -29 c
492 -29 428 -23 361 -10 c
295 2 227 20 156 45 c
156 240 l
212 207 273 183 340 166 c
407 149 476 141 549 141 c
676 141 772 166 838 216 c
905 266 938 339 938 434 c
938 522 907 591 845 640 c
784 690 698 715 588 715 c
414 715 l
414 881 l
596 881 l
695 881 771 901 824 940 c
877 980 903 1037 903 1112 c
903 1189 876 1247 821 1288 c
767 1329 689 1350 588 1350 c
533 1350 473 1344 410 1332 c
347 1320 277 1301 201 1276 c
201 1456 l
278 1477 349 1493 416 1504 c
483 1515 547 1520 606 1520 c
759 1520 881 1485 970 1415 c
1059 1346 1104 1252 1104 1133 c
1104 1050 1080 980 1033 923 c
986 866 918 827 831 805 c

ce} _d
/four{1303 0 100 0 1188 1493 sc
774 1317 m
264 520 l
774 520 l
774 1317 l

721 1493 m
975 1493 l
975 520 l
1188 520 l
1188 352 l
975 352 l
975 0 l
774 0 l
774 352 l
100 352 l
100 547 l
721 1493 l

ce} _d
/five{1303 0 158 -29 1124 1493 sc
221 1493 m
1014 1493 l
1014 1323 l
406 1323 l
406 957 l
435 967 465 974 494 979 c
523 984 553 987 582 987 c
749 987 881 941 978 850 c
1075 759 1124 635 1124 479 c
1124 318 1074 193 974 104 c
874 15 733 -29 551 -29 c
488 -29 424 -24 359 -13 c
294 -2 227 14 158 35 c
158 238 l
218 205 280 181 344 165 c
408 149 476 141 547 141 c
662 141 754 171 821 232 c
888 293 922 375 922 479 c
922 583 888 665 821 726 c
754 787 662 817 547 817 c
493 817 439 811 385 799 c
332 787 277 768 221 743 c
221 1493 l

ce} _d
/six{1303 0 143 -29 1174 1520 sc
676 827 m
585 827 513 796 460 734 c
407 672 381 587 381 479 c
381 372 407 287 460 224 c
513 162 585 131 676 131 c
767 131 838 162 891 224 c
944 287 971 372 971 479 c
971 587 944 672 891 734 c
838 796 767 827 676 827 c

1077 1460 m
1077 1276 l
1026 1300 975 1318 923 1331 c
872 1344 821 1350 770 1350 c
637 1350 535 1305 464 1215 c
394 1125 354 989 344 807 c
383 865 433 909 492 940 c
551 971 617 987 688 987 c
838 987 956 941 1043 850 c
1130 759 1174 636 1174 479 c
1174 326 1129 203 1038 110 c
947 17 827 -29 676 -29 c
503 -29 371 37 280 169 c
189 302 143 494 143 745 c
143 981 199 1169 311 1309 c
423 1450 573 1520 762 1520 c
813 1520 864 1515 915 1505 c
967 1495 1021 1480 1077 1460 c

ce} _d
/seven{1303 0 168 0 1128 1493 sc
168 1493 m
1128 1493 l
1128 1407 l
586 0 l
375 0 l
885 1323 l
168 1323 l
168 1493 l

ce} _d
/eight{1303 0 139 -29 1163 1520 sc
651 709 m
555 709 479 683 424 632 c
369 581 342 510 342 420 c
342 330 369 259 424 208 c
479 157 555 131 651 131 c
747 131 823 157 878 208 c
933 260 961 331 961 420 c
961 510 933 581 878 632 c
823 683 748 709 651 709 c

449 795 m
362 816 295 857 246 916 c
198 975 174 1048 174 1133 c
174 1252 216 1347 301 1416 c
386 1485 503 1520 651 1520 c
800 1520 916 1485 1001 1416 c
1086 1347 1128 1252 1128 1133 c
1128 1048 1104 975 1055 916 c
1007 857 940 816 854 795 c
951 772 1027 728 1081 662 c
1136 596 1163 515 1163 420 c
1163 275 1119 164 1030 87 c
942 10 816 -29 651 -29 c
486 -29 360 10 271 87 c
183 164 139 275 139 420 c
139 515 166 596 221 662 c
276 728 352 772 449 795 c

375 1114 m
375 1037 399 976 447 933 c
496 890 564 868 651 868 c
738 868 805 890 854 933 c
903 976 928 1037 928 1114 c
928 1191 903 1252 854 1295 c
805 1338 738 1360 651 1360 c
564 1360 496 1338 447 1295 c
399 1252 375 1191 375 1114 c

ce} _d
/nine{1303 0 129 -29 1159 1520 sc
225 31 m
225 215 l
276 191 327 173 379 160 c
431 147 482 141 532 141 c
665 141 767 186 837 275 c
908 365 948 501 958 684 c
919 627 870 583 811 552 c
752 521 686 506 614 506 c
465 506 346 551 259 641 c
172 732 129 855 129 1012 c
129 1165 174 1288 265 1381 c
356 1474 476 1520 627 1520 c
800 1520 931 1454 1022 1321 c
1113 1189 1159 997 1159 745 c
1159 510 1103 322 991 181 c
880 41 730 -29 541 -29 c
490 -29 439 -24 387 -14 c
335 -4 281 11 225 31 c

627 664 m
718 664 789 695 842 757 c
895 819 922 904 922 1012 c
922 1119 895 1204 842 1266 c
789 1329 718 1360 627 1360 c
536 1360 464 1329 411 1266 c
358 1204 332 1119 332 1012 c
332 904 358 819 411 757 c
464 695 536 664 627 664 c

ce} _d
/uni03BC{1303 0 174 -426 1253 1120 sc
174 -426 m
174 1120 l
358 1120 l
358 424 l
358 327 381 254 427 205 c
473 156 541 131 631 131 c
730 131 804 159 853 215 c
903 271 928 355 928 467 c
928 1120 l
1112 1120 l
1112 258 l
1112 218 1118 188 1129 169 c
1141 150 1159 141 1184 141 c
1190 141 1198 143 1209 146 c
1220 150 1234 156 1253 164 c
1253 16 l
1226 1 1200 -11 1175 -18 c
1151 -25 1127 -29 1104 -29 c
1058 -29 1021 -16 994 10 c
967 36 948 76 938 129 c
905 76 864 37 815 10 c
767 -16 710 -29 645 -29 c
577 -29 519 -16 471 10 c
424 36 386 75 358 127 c
358 -426 l
174 -426 l

ce} _d
/A{1401 0 16 0 1384 1493 sc
700 1294 m
426 551 l
975 551 l
700 1294 l

586 1493 m
815 1493 l
1384 0 l
1174 0 l
1038 383 l
365 383 l
229 0 l
16 0 l
586 1493 l

ce} _d
/B{1405 0 201 0 1260 1493 sc
403 713 m
403 166 l
727 166 l
836 166 916 188 968 233 c
1021 278 1047 347 1047 440 c
1047 533 1021 602 968 646 c
916 691 836 713 727 713 c
403 713 l

403 1327 m
403 877 l
702 877 l
801 877 874 895 922 932 c
971 969 995 1026 995 1102 c
995 1177 971 1234 922 1271 c
874 1308 801 1327 702 1327 c
403 1327 l

201 1493 m
717 1493 l
871 1493 990 1461 1073 1397 c
1156 1333 1198 1242 1198 1124 c
1198 1033 1177 960 1134 906 c
1091 852 1029 818 946 805 c
1045 784 1122 739 1177 671 c
1232 604 1260 519 1260 418 c
1260 285 1215 182 1124 109 c
1033 36 904 0 737 0 c
201 0 l
201 1493 l

ce} _d
/C{1430 0 115 -29 1319 1520 sc
1319 1378 m
1319 1165 l
1251 1228 1178 1276 1101 1307 c
1024 1338 943 1354 856 1354 c
685 1354 555 1302 464 1197 c
373 1093 328 942 328 745 c
328 548 373 398 464 293 c
555 189 685 137 856 137 c
943 137 1024 153 1101 184 c
1178 215 1251 263 1319 326 c
1319 115 l
1248 67 1173 31 1094 7 c
1015 -17 932 -29 844 -29 c
618 -29 440 40 310 178 c
180 317 115 506 115 745 c
115 985 180 1174 310 1312 c
440 1451 618 1520 844 1520 c
933 1520 1017 1508 1096 1484 c
1175 1461 1250 1425 1319 1378 c

ce} _d
/F{1178 0 201 0 1059 1493 sc
201 1493 m
1059 1493 l
1059 1323 l
403 1323 l
403 883 l
995 883 l
995 713 l
403 713 l
403 0 l
201 0 l
201 1493 l

ce} _d
/G{1587 0 115 -29 1419 1520 sc
1219 213 m
1219 614 l
889 614 l
889 780 l
1419 780 l
1419 139 l
1341 84 1255 42 1161 13 c
1067 -15 967 -29 860 -29 c
627 -29 444 39 312 175 c
181 312 115 502 115 745 c
115 989 181 1179 312 1315 c
444 1452 627 1520 860 1520 c
957 1520 1050 1508 1137 1484 c
1225 1460 1306 1425 1380 1378 c
1380 1163 l
1305 1226 1226 1274 1142 1306 c
1058 1338 970 1354 877 1354 c
694 1354 557 1303 465 1201 c
374 1099 328 947 328 745 c
328 544 374 392 465 290 c
557 188 694 137 877 137 c
948 137 1012 143 1068 155 c
1124 168 1174 187 1219 213 c

ce} _d
/N{1532 0 201 0 1331 1493 sc
201 1493 m
473 1493 l
1135 244 l
1135 1493 l
1331 1493 l
1331 0 l
1059 0 l
397 1249 l
397 0 l
201 0 l
201 1493 l

ce} _d
/O{1612 0 115 -29 1497 1520 sc
807 1356 m
660 1356 544 1301 457 1192 c
371 1083 328 934 328 745 c
328 557 371 408 457 299 c
544 190 660 135 807 135 c
954 135 1070 190 1155 299 c
1241 408 1284 557 1284 745 c
1284 934 1241 1083 1155 1192 c
1070 1301 954 1356 807 1356 c

807 1520 m
1016 1520 1184 1450 1309 1309 c
1434 1169 1497 981 1497 745 c
1497 510 1434 322 1309 181 c
1184 41 1016 -29 807 -29 c
597 -29 429 41 303 181 c
178 321 115 509 115 745 c
115 981 178 1169 303 1309 c
429 1450 597 1520 807 1520 c

ce} _d
/P{1235 0 201 0 1165 1493 sc
403 1327 m
403 766 l
657 766 l
751 766 824 790 875 839 c
926 888 952 957 952 1047 c
952 1136 926 1205 875 1254 c
824 1303 751 1327 657 1327 c
403 1327 l

201 1493 m
657 1493 l
824 1493 951 1455 1036 1379 c
1122 1304 1165 1193 1165 1047 c
1165 900 1122 788 1036 713 c
951 638 824 600 657 600 c
403 600 l
403 0 l
201 0 l
201 1493 l

ce} _d
/U{1499 0 178 -29 1321 1493 sc
178 1493 m
381 1493 l
381 586 l
381 426 410 311 468 240 c
526 170 620 135 750 135 c
879 135 973 170 1031 240 c
1089 311 1118 426 1118 586 c
1118 1493 l
1321 1493 l
1321 561 l
1321 366 1273 219 1176 120 c
1080 21 938 -29 750 -29 c
561 -29 419 21 322 120 c
226 219 178 366 178 561 c
178 1493 l

ce} _d
/bracketleft{799 0 176 -270 600 1556 sc
176 1556 m
600 1556 l
600 1413 l
360 1413 l
360 -127 l
600 -127 l
600 -270 l
176 -270 l
176 1556 l

ce} _d
/bracketright{799 0 199 -270 623 1556 sc
623 1556 m
623 -270 l
199 -270 l
199 -127 l
438 -127 l
438 1413 l
199 1413 l
199 1556 l
623 1556 l

ce} _d
/a{1255 0 123 -29 1069 1147 sc
702 563 m
553 563 450 546 393 512 c
336 478 307 420 307 338 c
307 273 328 221 371 182 c
414 144 473 125 547 125 c
649 125 731 161 792 233 c
854 306 885 402 885 522 c
885 563 l
702 563 l

1069 639 m
1069 0 l
885 0 l
885 170 l
843 102 791 52 728 19 c
665 -13 589 -29 498 -29 c
383 -29 292 3 224 67 c
157 132 123 218 123 326 c
123 452 165 547 249 611 c
334 675 460 707 627 707 c
885 707 l
885 725 l
885 810 857 875 801 921 c
746 968 668 991 567 991 c
503 991 441 983 380 968 c
319 953 261 930 205 899 c
205 1069 l
272 1095 338 1114 401 1127 c
464 1140 526 1147 586 1147 c
748 1147 869 1105 949 1021 c
1029 937 1069 810 1069 639 c

ce} _d
/c{1126 0 113 -29 999 1147 sc
999 1077 m
999 905 l
947 934 895 955 842 969 c
790 984 737 991 684 991 c
565 991 472 953 406 877 c
340 802 307 696 307 559 c
307 422 340 316 406 240 c
472 165 565 127 684 127 c
737 127 790 134 842 148 c
895 163 947 184 999 213 c
999 43 l
948 19 894 1 839 -11 c
784 -23 726 -29 664 -29 c
495 -29 361 24 262 130 c
163 236 113 379 113 559 c
113 742 163 885 263 990 c
364 1095 501 1147 676 1147 c
733 1147 788 1141 842 1129 c
896 1118 948 1100 999 1077 c

ce} _d
/e{1260 0 113 -29 1151 1147 sc
1151 606 m
1151 516 l
305 516 l
313 389 351 293 419 226 c
488 160 583 127 705 127 c
776 127 844 136 910 153 c
977 170 1043 196 1108 231 c
1108 57 l
1042 29 974 8 905 -7 c
836 -22 765 -29 694 -29 c
515 -29 374 23 269 127 c
165 231 113 372 113 549 c
113 732 162 878 261 985 c
360 1093 494 1147 662 1147 c
813 1147 932 1098 1019 1001 c
1107 904 1151 773 1151 606 c

967 660 m
966 761 937 841 882 901 c
827 961 755 991 664 991 c
561 991 479 962 417 904 c
356 846 320 764 311 659 c
967 660 l

ce} _d
/f{721 0 47 0 760 1556 sc
760 1556 m
760 1403 l
584 1403 l
518 1403 472 1390 446 1363 c
421 1336 408 1288 408 1219 c
408 1120 l
711 1120 l
711 977 l
408 977 l
408 0 l
223 0 l
223 977 l
47 977 l
47 1120 l
223 1120 l
223 1198 l
223 1323 252 1413 310 1470 c
368 1527 460 1556 586 1556 c
760 1556 l

ce} _d
/g{1300 0 113 -426 1114 1147 sc
930 573 m
930 706 902 810 847 883 c
792 956 715 993 616 993 c
517 993 440 956 385 883 c
330 810 303 706 303 573 c
303 440 330 337 385 264 c
440 191 517 154 616 154 c
715 154 792 191 847 264 c
902 337 930 440 930 573 c

1114 139 m
1114 -52 1072 -193 987 -286 c
902 -379 773 -426 598 -426 c
533 -426 472 -421 415 -411 c
358 -402 302 -387 248 -367 c
248 -188 l
302 -217 355 -239 408 -253 c
461 -267 514 -274 569 -274 c
690 -274 780 -242 840 -179 c
900 -116 930 -21 930 106 c
930 197 l
892 131 843 82 784 49 c
725 16 654 0 571 0 c
434 0 323 52 239 157 c
155 262 113 400 113 573 c
113 746 155 885 239 990 c
323 1095 434 1147 571 1147 c
654 1147 725 1131 784 1098 c
843 1065 892 1016 930 950 c
930 1120 l
1114 1120 l
1114 139 l

ce} _d
/h{1298 0 186 0 1124 1556 sc
1124 676 m
1124 0 l
940 0 l
940 670 l
940 776 919 855 878 908 c
837 961 775 987 692 987 c
593 987 514 955 457 892 c
400 829 371 742 371 633 c
371 0 l
186 0 l
186 1556 l
371 1556 l
371 946 l
415 1013 467 1064 526 1097 c
586 1130 655 1147 733 1147 c
862 1147 959 1107 1025 1027 c
1091 948 1124 831 1124 676 c

ce} _d
/i{569 0 193 0 377 1556 sc
193 1120 m
377 1120 l
377 0 l
193 0 l
193 1120 l

193 1556 m
377 1556 l
377 1323 l
193 1323 l
193 1556 l

ce} _d
/j{569 0 -37 -426 377 1556 sc
193 1120 m
377 1120 l
377 -20 l
377 -163 350 -266 295 -330 c
241 -394 154 -426 33 -426 c
-37 -426 l
-37 -270 l
12 -270 l
82 -270 130 -254 155 -221 c
180 -189 193 -122 193 -20 c
193 1120 l

193 1556 m
377 1556 l
377 1323 l
193 1323 l
193 1556 l

ce} _d
/l{569 0 193 0 377 1556 sc
193 1556 m
377 1556 l
377 0 l
193 0 l
193 1556 l

ce} _d
/m{1995 0 186 0 1821 1147 sc
1065 905 m
1111 988 1166 1049 1230 1088 c
1294 1127 1369 1147 1456 1147 c
1573 1147 1663 1106 1726 1024 c
1789 943 1821 827 1821 676 c
1821 0 l
1636 0 l
1636 670 l
1636 777 1617 857 1579 909 c
1541 961 1483 987 1405 987 c
1310 987 1234 955 1179 892 c
1124 829 1096 742 1096 633 c
1096 0 l
911 0 l
911 670 l
911 778 892 858 854 909 c
816 961 757 987 678 987 c
584 987 509 955 454 891 c
399 828 371 742 371 633 c
371 0 l
186 0 l
186 1120 l
371 1120 l
371 946 l
413 1015 463 1065 522 1098 c
581 1131 650 1147 731 1147 c
812 1147 881 1126 938 1085 c
995 1044 1038 984 1065 905 c

ce} _d
/n{1298 0 186 0 1124 1147 sc
1124 676 m
1124 0 l
940 0 l
940 670 l
940 776 919 855 878 908 c
837 961 775 987 692 987 c
593 987 514 955 457 892 c
400 829 371 742 371 633 c
371 0 l
186 0 l
186 1120 l
371 1120 l
371 946 l
415 1013 467 1064 526 1097 c
586 1130 655 1147 733 1147 c
862 1147 959 1107 1025 1027 c
1091 948 1124 831 1124 676 c

ce} _d
/p{1300 0 186 -426 1188 1147 sc
371 168 m
371 -426 l
186 -426 l
186 1120 l
371 1120 l
371 950 l
410 1017 458 1066 517 1098 c
576 1131 647 1147 729 1147 c
865 1147 975 1093 1060 985 c
1145 877 1188 735 1188 559 c
1188 383 1145 241 1060 133 c
975 25 865 -29 729 -29 c
647 -29 576 -13 517 19 c
458 52 410 101 371 168 c

997 559 m
997 694 969 800 913 877 c
858 954 781 993 684 993 c
587 993 510 954 454 877 c
399 800 371 694 371 559 c
371 424 399 317 454 240 c
510 163 587 125 684 125 c
781 125 858 163 913 240 c
969 317 997 424 997 559 c

ce} _d
/r{842 0 186 0 842 1147 sc
842 948 m
821 960 799 969 774 974 c
750 980 723 983 694 983 c
590 983 510 949 454 881 c
399 814 371 717 371 590 c
371 0 l
186 0 l
186 1120 l
371 1120 l
371 946 l
410 1014 460 1064 522 1097 c
584 1130 659 1147 748 1147 c
761 1147 775 1146 790 1144 c
805 1143 822 1140 841 1137 c
842 948 l

ce} _d
/s{1067 0 111 -29 967 1147 sc
907 1087 m
907 913 l
855 940 801 960 745 973 c
689 986 631 993 571 993 c
480 993 411 979 365 951 c
320 923 297 881 297 825 c
297 782 313 749 346 724 c
379 700 444 677 543 655 c
606 641 l
737 613 829 573 884 522 c
939 471 967 400 967 309 c
967 205 926 123 843 62 c
761 1 648 -29 504 -29 c
444 -29 381 -23 316 -11 c
251 0 183 18 111 41 c
111 231 l
179 196 246 169 312 151 c
378 134 443 125 508 125 c
595 125 661 140 708 169 c
755 199 778 241 778 295 c
778 345 761 383 727 410 c
694 437 620 462 506 487 c
442 502 l
328 526 246 563 195 612 c
144 662 119 730 119 817 c
119 922 156 1004 231 1061 c
306 1118 412 1147 549 1147 c
617 1147 681 1142 741 1132 c
801 1122 856 1107 907 1087 c

ce} _d
/t{803 0 55 0 754 1438 sc
375 1438 m
375 1120 l
754 1120 l
754 977 l
375 977 l
375 369 l
375 278 387 219 412 193 c
437 167 488 154 565 154 c
754 154 l
754 0 l
565 0 l
423 0 325 26 271 79 c
217 132 190 229 190 369 c
190 977 l
55 977 l
55 1120 l
190 1120 l
190 1438 l
375 1438 l

ce} _d
/v{1212 0 61 0 1151 1120 sc
61 1120 m
256 1120 l
606 180 l
956 1120 l
1151 1120 l
731 0 l
481 0 l
61 1120 l

ce} _d
/z{1075 0 88 0 987 1120 sc
113 1120 m
987 1120 l
987 952 l
295 147 l
987 147 l
987 0 l
88 0 l
88 168 l
780 973 l
113 973 l
113 1120 l

ce} _d
end readonly def

/BuildGlyph {
 exch begin
 CharStrings exch
 2 copy known not {pop /.notdef} if
 true 3 1 roll get exec
 end
} _d

/BuildChar {
 1 index /Encoding get exch get
 1 index /BuildGlyph get exec
} _d

FontName currentdict end definefont pop
end
%%EndProlog
mpldict begin
90 223.2 translate
432 345.6 0 0 clipbox
gsave
0 0 m
432 0 l
432 345.6 l
0 345.6 l
cl
1.000 setgray
fill
grestore
gsave
64.636953 57.72 m
416.88 57.72 l
416.88 330.48 l
64.636953 330.48 l
cl
1.000 setgray
fill
grestore
1.000 setlinewidth
1 setlinejoin
0 setlinecap
[] 0 setdash
0.122 0.467 0.706 setrgbcolor
gsave
352.243 272.76 64.637 57.72 clipbox
/o {
gsave
newpath
translate
1.0 setlinewidth
1 setlinejoin

0 setlinecap

-0 -2.236068 m
2.236068 2.236068 l
-2.236068 2.236068 l
cl

gsave
0.122 0.467 0.706 setrgbcolor
fill
grestore
stroke
grestore
} bind def
80.648 181.881 o
116.228 164.852 o
151.808 146.64 o
187.388 133.814 o
222.968 117.03 o
258.549 105.682 o
294.129 93.8903 o
329.709 88.1493 o
365.289 85.939 o
400.869 82.8605 o
grestore
1.000 0.498 0.055 setrgbcolor
gsave
352.243 272.76 64.637 57.72 clipbox
/o {
gsave
newpath
translate
1.0 setlinewidth
1 setlinejoin

0 setlinecap

0 2.236068 m
-2.236068 -2.236068 l
2.236068 -2.236068 l
cl

gsave
1.000 0.498 0.055 setrgbcolor
fill
grestore
stroke
grestore
} bind def
80.648 180.559 o
116.228 163.756 o
151.808 145.397 o
187.388 132.689 o
222.968 114.643 o
258.549 101.12 o
294.129 88.9823 o
329.709 78.6349 o
365.289 74.8266 o
400.869 70.1182 o
grestore
2.000 setlinewidth
0.173 0.627 0.173 setrgbcolor
gsave
352.243 272.76 64.637 57.72 clipbox
/o {
gsave
newpath
translate
2.0 setlinewidth
1 setlinejoin

0 setlinecap

-2.236068 -2.236068 m
2.236068 2.236068 l
-2.236068 2.236068 m
2.236068 -2.236068 l

gsave
0.173 0.627 0.173 setrgbcolor
fill
grestore
stroke
grestore
} bind def
80.648 235.209 o
116.228 224.413 o
151.808 217.918 o
187.388 208.769 o
222.968 207.705 o
258.549 206.097 o
294.129 205.153 o
329.709 204.671 o
365.289 204.354 o
400.869 204.116 o
grestore
1.000 setlinewidth
0.839 0.153 0.157 setrgbcolor
gsave
352.243 272.76 64.637 57.72 clipbox
/o {
gsave
newpath
translate
1.0 setlinewidth
1 setlinejoin

0 setlinecap

0 -2.236068 m
0.593012 -2.236068 1.161816 -2.000462 1.581139 -1.581139 c
2.000462 -1.161816 2.236068 -0.593012 2.236068 0 c
2.236068 0.593012 2.000462 1.161816 1.581139 1.581139 c
1.161816 2.000462 0.593012 2.236068 0 2.236068 c
-0.593012 2.236068 -1.161816 2.000462 -1.581139 1.581139 c
-2.000462 1.161816 -2.236068 0.593012 -2.236068 0 c
-2.236068 -0.593012 -2.000462 -1.161816 -1.581139 -1.581139 c
-1.161816 -2.000462 -0.593012 -2.236068 0 -2.236068 c
cl

gsave
0.839 0.153 0.157 setrgbcolor
fill
grestore
stroke
grestore
} bind def
80.648 257.751 o
116.228 244.828 o
151.808 252.061 o
187.388 253.32 o
222.968 237.712 o
258.549 224.164 o
294.129 189.683 o
329.709 195.438 o
365.289 193.813 o
400.869 189.032 o
grestore
0.580 0.404 0.741 setrgbcolor
gsave
352.243 272.76 64.637 57.72 clipbox
/o {
gsave
newpath
translate
1.0 setlinewidth
1 setlinejoin

0 setlinecap

-2.236068 -2.236068 m
2.236068 -2.236068 l
2.236068 2.236068 l
-2.236068 2.236068 l
cl

gsave
0.580 0.404 0.741 setrgbcolor
fill
grestore
stroke
grestore
} bind def
80.648 211.921 o
116.228 218.775 o
151.808 216.223 o
187.388 208.954 o
222.968 205.995 o
258.549 194.214 o
294.129 181.756 o
329.709 136.552 o
365.289 172.836 o
400.869 100.869 o
grestore
0.549 0.337 0.294 setrgbcolor
gsave
352.243 272.76 64.637 57.72 clipbox
/o {
gsave
newpath
translate
1.0 setlinewidth
1 setlinejoin

0 setlinecap

-0 -3.162278 m
3.162278 0 l
0 3.162278 l
-3.162278 0 l
cl

gsave
0.549 0.337 0.294 setrgbcolor
fill
grestore
stroke
grestore
} bind def
80.648 317.546 o
116.228 318.082 o
151.808 305.604 o
187.388 297.879 o
222.968 297.189 o
258.549 294.443 o
294.129 288.438 o
329.709 282.692 o
365.289 276.355 o
400.869 271.742 o
grestore
1.200 setlinewidth
0.000 setgray
gsave
/o {
gsave
newpath
translate
1.2 setlinewidth
1 setlinejoin

0 setlinecap

0 0 m
0 3.5 l

gsave
0.000 setgray
fill
grestore
stroke
grestore
} bind def
80.648 57.72 o
grestore
gsave
/o {
gsave
newpath
translate
1.2 setlinewidth
1 setlinejoin

0 setlinecap

0 0 m
0 -3.5 l

gsave
0.000 setgray
fill
grestore
stroke
grestore
} bind def
80.648 330.48 o
grestore
gsave
73.148001 44.345000 translate
0.000000 rotate
/DejaVuSans 13.0 selectfont
0.000000 0.384375 moveto
/two glyphshow
/DejaVuSans 9.1 selectfont
8.395410 5.360938 moveto
/one glyphshow
grestore
gsave
/o {
gsave
newpath
translate
1.2 setlinewidth
1 setlinejoin

0 setlinecap

0 0 m
0 3.5 l

gsave
0.000 setgray
fill
grestore
stroke
grestore
} bind def
116.228 57.72 o
grestore
gsave
/o {
gsave
newpath
translate
1.2 setlinewidth
1 setlinejoin

0 setlinecap

0 0 m
0 -3.5 l

gsave
0.000 setgray
fill
grestore
stroke
grestore
} bind def
116.228 330.48 o
grestore
gsave
108.728106 44.345000 translate
0.000000 rotate
/DejaVuSans 13.0 selectfont
0.000000 0.264063 moveto
/two glyphshow
/DejaVuSans 9.1 selectfont
8.395410 5.240625 moveto
/two glyphshow
grestore
gsave
/o {
gsave
newpath
translate
1.2 setlinewidth
1 setlinejoin

0 setlinecap

0 0 m
0 3.5 l

gsave
0.000 setgray
fill
grestore
stroke
grestore
} bind def
151.808 57.72 o
grestore
gsave
/o {
gsave
newpath
translate
1.2 setlinewidth
1 setlinejoin

0 setlinecap

0 0 m
0 -3.5 l

gsave
0.000 setgray
fill
grestore
stroke
grestore
} bind def
151.808 330.48 o
grestore
gsave
144.308212 44.345000 translate
0.000000 rotate
/DejaVuSans 13.0 selectfont
0.000000 0.264063 moveto
/two glyphshow
/DejaVuSans 9.1 selectfont
8.395410 5.240625 moveto
/three glyphshow
grestore
gsave
/o {
gsave
newpath
translate
1.2 setlinewidth
1 setlinejoin

0 setlinecap

0 0 m
0 3.5 l

gsave
0.000 setgray
fill
grestore
stroke
grestore
} bind def
187.388 57.72 o
grestore
gsave
/o {
gsave
newpath
translate
1.2 setlinewidth
1 setlinejoin

0 setlinecap

0 0 m
0 -3.5 l

gsave
0.000 setgray
fill
grestore
stroke
grestore
} bind def
187.388 330.48 o
grestore
gsave
179.888318 44.345000 translate
0.000000 rotate
/DejaVuSans 13.0 selectfont
0.000000 0.384375 moveto
/two glyphshow
/DejaVuSans 9.1 selectfont
8.395410 5.360938 moveto
/four glyphshow
grestore
gsave
/o {
gsave
newpath
translate
1.2 setlinewidth
1 setlinejoin

0 setlinecap

0 0 m
0 3.5 l

gsave
0.000 setgray
fill
grestore
stroke
grestore
} bind def
222.968 57.72 o
grestore
gsave
/o {
gsave
newpath
translate
1.2 setlinewidth
1 setlinejoin

0 setlinecap

0 0 m
0 -3.5 l

gsave
0.000 setgray
fill
grestore
stroke
grestore
} bind def
222.968 330.48 o
grestore
gsave
215.468424 44.345000 translate
0.000000 rotate
/DejaVuSans 13.0 selectfont
0.000000 0.384375 moveto
/two glyphshow
/DejaVuSans 9.1 selectfont
8.395410 5.360938 moveto
/five glyphshow
grestore
gsave
/o {
gsave
newpath
translate
1.2 setlinewidth
1 setlinejoin

0 setlinecap

0 0 m
0 3.5 l

gsave
0.000 setgray
fill
grestore
stroke
grestore
} bind def
258.549 57.72 o
grestore
gsave
/o {
gsave
newpath
translate
1.2 setlinewidth
1 setlinejoin

0 setlinecap

0 0 m
0 -3.5 l

gsave
0.000 setgray
fill
grestore
stroke
grestore
} bind def
258.549 330.48 o
grestore
gsave
251.048529 44.345000 translate
0.000000 rotate
/DejaVuSans 13.0 selectfont
0.000000 0.264063 moveto
/two glyphshow
/DejaVuSans 9.1 selectfont
8.395410 5.240625 moveto
/six glyphshow
grestore
gsave
/o {
gsave
newpath
translate
1.2 setlinewidth
1 setlinejoin

0 setlinecap

0 0 m
0 3.5 l

gsave
0.000 setgray
fill
grestore
stroke
grestore
} bind def
294.129 57.72 o
grestore
gsave
/o {
gsave
newpath
translate
1.2 setlinewidth
1 setlinejoin

0 setlinecap

0 0 m
0 -3.5 l

gsave
0.000 setgray
fill
grestore
stroke
grestore
} bind def
294.129 330.48 o
grestore
gsave
286.628635 44.345000 translate
0.000000 rotate
/DejaVuSans 13.0 selectfont
0.000000 0.384375 moveto
/two glyphshow
/DejaVuSans 9.1 selectfont
8.395410 5.360938 moveto
/seven glyphshow
grestore
gsave
/o {
gsave
newpath
translate
1.2 setlinewidth
1 setlinejoin

0 setlinecap

0 0 m
0 3.5 l

gsave
0.000 setgray
fill
grestore
stroke
grestore
} bind def
329.709 57.72 o
grestore
gsave
/o {
gsave
newpath
translate
1.2 setlinewidth
1 setlinejoin

0 setlinecap

0 0 m
0 -3.5 l

gsave
0.000 setgray
fill
grestore
stroke
grestore
} bind def
329.709 330.48 o
grestore
gsave
322.208741 44.345000 translate
0.000000 rotate
/DejaVuSans 13.0 selectfont
0.000000 0.264063 moveto
/two glyphshow
/DejaVuSans 9.1 selectfont
8.395410 5.240625 moveto
/eight glyphshow
grestore
gsave
/o {
gsave
newpath
translate
1.2 setlinewidth
1 setlinejoin

0 setlinecap

0 0 m
0 3.5 l

gsave
0.000 setgray
fill
grestore
stroke
grestore
} bind def
365.289 57.72 o
grestore
gsave
/o {
gsave
newpath
translate
1.2 setlinewidth
1 setlinejoin

0 setlinecap

0 0 m
0 -3.5 l

gsave
0.000 setgray
fill
grestore
stroke
grestore
} bind def
365.289 330.48 o
grestore
gsave
357.788847 44.345000 translate
0.000000 rotate
/DejaVuSans 13.0 selectfont
0.000000 0.264063 moveto
/two glyphshow
/DejaVuSans 9.1 selectfont
8.395410 5.240625 moveto
/nine glyphshow
grestore
gsave
/o {
gsave
newpath
translate
1.2 setlinewidth
1 setlinejoin

0 setlinecap

0 0 m
0 3.5 l

gsave
0.000 setgray
fill
grestore
stroke
grestore
} bind def
400.869 57.72 o
grestore
gsave
/o {
gsave
newpath
translate
1.2 setlinewidth
1 setlinejoin

0 setlinecap

0 0 m
0 -3.5 l

gsave
0.000 setgray
fill
grestore
stroke
grestore
} bind def
400.869 330.48 o
grestore
gsave
390.368952 44.345000 translate
0.000000 rotate
/DejaVuSans 13.0 selectfont
0.000000 0.264063 moveto
/two glyphshow
/DejaVuSans 9.1 selectfont
8.395410 5.240625 moveto
/one glyphshow
14.185107 5.240625 moveto
/zero glyphshow
grestore
/DejaVuSans 13.000 selectfont
gsave

207.391289 27.766875 translate
0.000000 rotate
0.000000 0 m /B glyphshow
8.918457 0 m /a glyphshow
16.884766 0 m /t glyphshow
21.981934 0 m /c glyphshow
29.129395 0 m /h glyphshow
37.368652 0 m /space glyphshow
41.500977 0 m /s glyphshow
48.273926 0 m /i glyphshow
51.885742 0 m /z glyphshow
58.709473 0 m /e glyphshow
grestore
gsave
/o {
gsave
newpath
translate
1.2 setlinewidth
1 setlinejoin

0 setlinecap

0 0 m
3.5 0 l

gsave
0.000 setgray
fill
grestore
stroke
grestore
} bind def
64.637 103.419 o
grestore
gsave
/o {
gsave
newpath
translate
1.2 setlinewidth
1 setlinejoin

0 setlinecap

-0 0 m
-3.5 0 l

gsave
0.000 setgray
fill
grestore
stroke
grestore
} bind def
416.88 103.419 o
grestore
gsave
38.136953 98.270372 translate
0.000000 rotate
/DejaVuSans 13.0 selectfont
0.000000 0.384375 moveto
/one glyphshow
8.270996 0.384375 moveto
/zero glyphshow
/DejaVuSans 9.1 selectfont
16.666406 5.360938 moveto
/one glyphshow
grestore
gsave
/o {
gsave
newpath
translate
1.2 setlinewidth
1 setlinejoin

0 setlinecap

0 0 m
3.5 0 l

gsave
0.000 setgray
fill
grestore
stroke
grestore
} bind def
64.637 163.008 o
grestore
gsave
/o {
gsave
newpath
translate
1.2 setlinewidth
1 setlinejoin

0 setlinecap

-0 0 m
-3.5 0 l

gsave
0.000 setgray
fill
grestore
stroke
grestore
} bind def
416.88 163.008 o
grestore
gsave
38.136953 157.859893 translate
0.000000 rotate
/DejaVuSans 13.0 selectfont
0.000000 0.264063 moveto
/one glyphshow
8.270996 0.264063 moveto
/zero glyphshow
/DejaVuSans 9.1 selectfont
16.666406 5.240625 moveto
/two glyphshow
grestore
gsave
/o {
gsave
newpath
translate
1.2 setlinewidth
1 setlinejoin

0 setlinecap

0 0 m
3.5 0 l

gsave
0.000 setgray
fill
grestore
stroke
grestore
} bind def
64.637 222.598 o
grestore
gsave
/o {
gsave
newpath
translate
1.2 setlinewidth
1 setlinejoin

0 setlinecap

-0 0 m
-3.5 0 l

gsave
0.000 setgray
fill
grestore
stroke
grestore
} bind def
416.88 222.598 o
grestore
gsave
38.136953 217.449414 translate
0.000000 rotate
/DejaVuSans 13.0 selectfont
0.000000 0.264063 moveto
/one glyphshow
8.270996 0.264063 moveto
/zero glyphshow
/DejaVuSans 9.1 selectfont
16.666406 5.240625 moveto
/three glyphshow
grestore
gsave
/o {
gsave
newpath
translate
1.2 setlinewidth
1 setlinejoin

0 setlinecap

0 0 m
3.5 0 l

gsave
0.000 setgray
fill
grestore
stroke
grestore
} bind def
64.637 282.187 o
grestore
gsave
/o {
gsave
newpath
translate
1.2 setlinewidth
1 setlinejoin

0 setlinecap

-0 0 m
-3.5 0 l

gsave
0.000 setgray
fill
grestore
stroke
grestore
} bind def
416.88 282.187 o
grestore
gsave
38.136953 277.038935 translate
0.000000 rotate
/DejaVuSans 13.0 selectfont
0.000000 0.384375 moveto
/one glyphshow
8.270996 0.384375 moveto
/zero glyphshow
/DejaVuSans 9.1 selectfont
16.666406 5.360938 moveto
/four glyphshow
grestore
gsave
/o {
gsave
newpath
translate
1.2 setlinewidth
1 setlinejoin

0 setlinecap

0 0 m
2 0 l

gsave
0.000 setgray
fill
grestore
stroke
grestore
} bind def
64.637 61.7675 o
grestore
gsave
/o {
gsave
newpath
translate
1.2 setlinewidth
1 setlinejoin

0 setlinecap

-0 0 m
-2 0 l

gsave
0.000 setgray
fill
grestore
stroke
grestore
} bind def
416.88 61.7675 o
grestore
gsave
/o {
gsave
newpath
translate
1.2 setlinewidth
1 setlinejoin

0 setlinecap

0 0 m
2 0 l

gsave
0.000 setgray
fill
grestore
stroke
grestore
} bind def
64.637 72.2607 o
grestore
gsave
/o {
gsave
newpath
translate
1.2 setlinewidth
1 setlinejoin

0 setlinecap

-0 0 m
-2 0 l

gsave
0.000 setgray
fill
grestore
stroke
grestore
} bind def
416.88 72.2607 o
grestore
gsave
/o {
gsave
newpath
translate
1.2 setlinewidth
1 setlinejoin

0 setlinecap

0 0 m
2 0 l

gsave
0.000 setgray
fill
grestore
stroke
grestore
} bind def
64.637 79.7058 o
grestore
gsave
/o {
gsave
newpath
translate
1.2 setlinewidth
1 setlinejoin

0 setlinecap

-0 0 m
-2 0 l

gsave
0.000 setgray
fill
grestore
stroke
grestore
} bind def
416.88 79.7058 o
grestore
gsave
/o {
gsave
newpath
translate
1.2 setlinewidth
1 setlinejoin

0 setlinecap

0 0 m
2 0 l

gsave
0.000 setgray
fill
grestore
stroke
grestore
} bind def
64.637 85.4806 o
grestore
gsave
/o {
gsave
newpath
translate
1.2 setlinewidth
1 setlinejoin

0 setlinecap

-0 0 m
-2 0 l

gsave
0.000 setgray
fill
grestore
stroke
grestore
} bind def
416.88 85.4806 o
grestore
gsave
/o {
gsave
newpath
translate
1.2 setlinewidth
1 setlinejoin

0 setlinecap

0 0 m
2 0 l

gsave
0.000 setgray
fill
grestore
stroke
grestore
} bind def
64.637 90.1989 o
grestore
gsave
/o {
gsave
newpath
translate
1.2 setlinewidth
1 setlinejoin

0 setlinecap

-0 0 m
-2 0 l

gsave
0.000 setgray
fill
grestore
stroke
grestore
} bind def
416.88 90.1989 o
grestore
gsave
/o {
gsave
newpath
translate
1.2 setlinewidth
1 setlinejoin

0 setlinecap

0 0 m
2 0 l

gsave
0.000 setgray
fill
grestore
stroke
grestore
} bind def
64.637 94.1883 o
grestore
gsave
/o {
gsave
newpath
translate
1.2 setlinewidth
1 setlinejoin

0 setlinecap

-0 0 m
-2 0 l

gsave
0.000 setgray
fill
grestore
stroke
grestore
} bind def
416.88 94.1883 o
grestore
gsave
/o {
gsave
newpath
translate
1.2 setlinewidth
1 setlinejoin

0 setlinecap

0 0 m
2 0 l

gsave
0.000 setgray
fill
grestore
stroke
grestore
} bind def
64.637 97.644 o
grestore
gsave
/o {
gsave
newpath
translate
1.2 setlinewidth
1 setlinejoin

0 setlinecap

-0 0 m
-2 0 l

gsave
0.000 setgray
fill
grestore
stroke
grestore
} bind def
416.88 97.644 o
grestore
gsave
/o {
gsave
newpath
translate
1.2 setlinewidth
1 setlinejoin

0 setlinecap

0 0 m
2 0 l

gsave
0.000 setgray
fill
grestore
stroke
grestore
} bind def
64.637 100.692 o
grestore
gsave
/o {
gsave
newpath
translate
1.2 setlinewidth
1 setlinejoin

0 setlinecap

-0 0 m
-2 0 l

gsave
0.000 setgray
fill
grestore
stroke
grestore
} bind def
416.88 100.692 o
grestore
gsave
/o {
gsave
newpath
translate
1.2 setlinewidth
1 setlinejoin

0 setlinecap

0 0 m
2 0 l

gsave
0.000 setgray
fill
grestore
stroke
grestore
} bind def
64.637 121.357 o
grestore
gsave
/o {
gsave
newpath
translate
1.2 setlinewidth
1 setlinejoin

0 setlinecap

-0 0 m
-2 0 l

gsave
0.000 setgray
fill
grestore
stroke
grestore
} bind def
416.88 121.357 o
grestore
gsave
/o {
gsave
newpath
translate
1.2 setlinewidth
1 setlinejoin

0 setlinecap

0 0 m
2 0 l

gsave
0.000 setgray
fill
grestore
stroke
grestore
} bind def
64.637 131.85 o
grestore
gsave
/o {
gsave
newpath
translate
1.2 setlinewidth
1 setlinejoin

0 setlinecap

-0 0 m
-2 0 l

gsave
0.000 setgray
fill
grestore
stroke
grestore
} bind def
416.88 131.85 o
grestore
gsave
/o {
gsave
newpath
translate
1.2 setlinewidth
1 setlinejoin

0 setlinecap

0 0 m
2 0 l

gsave
0.000 setgray
fill
grestore
stroke
grestore
} bind def
64.637 139.295 o
grestore
gsave
/o {
gsave
newpath
translate
1.2 setlinewidth
1 setlinejoin

0 setlinecap

-0 0 m
-2 0 l

gsave
0.000 setgray
fill
grestore
stroke
grestore
} bind def
416.88 139.295 o
grestore
gsave
/o {
gsave
newpath
translate
1.2 setlinewidth
1 setlinejoin

0 setlinecap

0 0 m
2 0 l

gsave
0.000 setgray
fill
grestore
stroke
grestore
} bind def
64.637 145.07 o
grestore
gsave
/o {
gsave
newpath
translate
1.2 setlinewidth
1 setlinejoin

0 setlinecap

-0 0 m
-2 0 l

gsave
0.000 setgray
fill
grestore
stroke
grestore
} bind def
416.88 145.07 o
grestore
gsave
/o {
gsave
newpath
translate
1.2 setlinewidth
1 setlinejoin

0 setlinecap

0 0 m
2 0 l

gsave
0.000 setgray
fill
grestore
stroke
grestore
} bind def
64.637 149.788 o
grestore
gsave
/o {
gsave
newpath
translate
1.2 setlinewidth
1 setlinejoin

0 setlinecap

-0 0 m
-2 0 l

gsave
0.000 setgray
fill
grestore
stroke
grestore
} bind def
416.88 149.788 o
grestore
gsave
/o {
gsave
newpath
translate
1.2 setlinewidth
1 setlinejoin

0 setlinecap

0 0 m
2 0 l

gsave
0.000 setgray
fill
grestore
stroke
grestore
} bind def
64.637 153.778 o
grestore
gsave
/o {
gsave
newpath
translate
1.2 setlinewidth
1 setlinejoin

0 setlinecap

-0 0 m
-2 0 l

gsave
0.000 setgray
fill
grestore
stroke
grestore
} bind def
416.88 153.778 o
grestore
gsave
/o {
gsave
newpath
translate
1.2 setlinewidth
1 setlinejoin

0 setlinecap

0 0 m
2 0 l

gsave
0.000 setgray
fill
grestore
stroke
grestore
} bind def
64.637 157.234 o
grestore
gsave
/o {
gsave
newpath
translate
1.2 setlinewidth
1 setlinejoin

0 setlinecap

-0 0 m
-2 0 l

gsave
0.000 setgray
fill
grestore
stroke
grestore
} bind def
416.88 157.234 o
grestore
gsave
/o {
gsave
newpath
translate
1.2 setlinewidth
1 setlinejoin

0 setlinecap

0 0 m
2 0 l

gsave
0.000 setgray
fill
grestore
stroke
grestore
} bind def
64.637 160.282 o
grestore
gsave
/o {
gsave
newpath
translate
1.2 setlinewidth
1 setlinejoin

0 setlinecap

-0 0 m
-2 0 l

gsave
0.000 setgray
fill
grestore
stroke
grestore
} bind def
416.88 160.282 o
grestore
gsave
/o {
gsave
newpath
translate
1.2 setlinewidth
1 setlinejoin

0 setlinecap

0 0 m
2 0 l

gsave
0.000 setgray
fill
grestore
stroke
grestore
} bind def
64.637 180.947 o
grestore
gsave
/o {
gsave
newpath
translate
1.2 setlinewidth
1 setlinejoin

0 setlinecap

-0 0 m
-2 0 l

gsave
0.000 setgray
fill
grestore
stroke
grestore
} bind def
416.88 180.947 o
grestore
gsave
/o {
gsave
newpath
translate
1.2 setlinewidth
1 setlinejoin

0 setlinecap

0 0 m
2 0 l

gsave
0.000 setgray
fill
grestore
stroke
grestore
} bind def
64.637 191.44 o
grestore
gsave
/o {
gsave
newpath
translate
1.2 setlinewidth
1 setlinejoin

0 setlinecap

-0 0 m
-2 0 l

gsave
0.000 setgray
fill
grestore
stroke
grestore
} bind def
416.88 191.44 o
grestore
gsave
/o {
gsave
newpath
translate
1.2 setlinewidth
1 setlinejoin

0 setlinecap

0 0 m
2 0 l

gsave
0.000 setgray
fill
grestore
stroke
grestore
} bind def
64.637 198.885 o
grestore
gsave
/o {
gsave
newpath
translate
1.2 setlinewidth
1 setlinejoin

0 setlinecap

-0 0 m
-2 0 l

gsave
0.000 setgray
fill
grestore
stroke
grestore
} bind def
416.88 198.885 o
grestore
gsave
/o {
gsave
newpath
translate
1.2 setlinewidth
1 setlinejoin

0 setlinecap

0 0 m
2 0 l

gsave
0.000 setgray
fill
grestore
stroke
grestore
} bind def
64.637 204.66 o
grestore
gsave
/o {
gsave
newpath
translate
1.2 setlinewidth
1 setlinejoin

0 setlinecap

-0 0 m
-2 0 l

gsave
0.000 setgray
fill
grestore
stroke
grestore
} bind def
416.88 204.66 o
grestore
gsave
/o {
gsave
newpath
translate
1.2 setlinewidth
1 setlinejoin

0 setlinecap

0 0 m
2 0 l

gsave
0.000 setgray
fill
grestore
stroke
grestore
} bind def
64.637 209.378 o
grestore
gsave
/o {
gsave
newpath
translate
1.2 setlinewidth
1 setlinejoin

0 setlinecap

-0 0 m
-2 0 l

gsave
0.000 setgray
fill
grestore
stroke
grestore
} bind def
416.88 209.378 o
grestore
gsave
/o {
gsave
newpath
translate
1.2 setlinewidth
1 setlinejoin

0 setlinecap

0 0 m
2 0 l

gsave
0.000 setgray
fill
grestore
stroke
grestore
} bind def
64.637 213.367 o
grestore
gsave
/o {
gsave
newpath
translate
1.2 setlinewidth
1 setlinejoin

0 setlinecap

-0 0 m
-2 0 l

gsave
0.000 setgray
fill
grestore
stroke
grestore
} bind def
416.88 213.367 o
grestore
gsave
/o {
gsave
newpath
translate
1.2 setlinewidth
1 setlinejoin

0 setlinecap

0 0 m
2 0 l

gsave
0.000 setgray
fill
grestore
stroke
grestore
} bind def
64.637 216.823 o
grestore
gsave
/o {
gsave
newpath
translate
1.2 setlinewidth
1 setlinejoin

0 setlinecap

-0 0 m
-2 0 l

gsave
0.000 setgray
fill
grestore
stroke
grestore
} bind def
416.88 216.823 o
grestore
gsave
/o {
gsave
newpath
translate
1.2 setlinewidth
1 setlinejoin

0 setlinecap

0 0 m
2 0 l

gsave
0.000 setgray
fill
grestore
stroke
grestore
} bind def
64.637 219.871 o
grestore
gsave
/o {
gsave
newpath
translate
1.2 setlinewidth
1 setlinejoin

0 setlinecap

-0 0 m
-2 0 l

gsave
0.000 setgray
fill
grestore
stroke
grestore
} bind def
416.88 219.871 o
grestore
gsave
/o {
gsave
newpath
translate
1.2 setlinewidth
1 setlinejoin

0 setlinecap

0 0 m
2 0 l

gsave
0.000 setgray
fill
grestore
stroke
grestore
} bind def
64.637 240.536 o
grestore
gsave
/o {
gsave
newpath
translate
1.2 setlinewidth
1 setlinejoin

0 setlinecap

-0 0 m
-2 0 l

gsave
0.000 setgray
fill
grestore
stroke
grestore
} bind def
416.88 240.536 o
grestore
gsave
/o {
gsave
newpath
translate
1.2 setlinewidth
1 setlinejoin

0 setlinecap

0 0 m
2 0 l

gsave
0.000 setgray
fill
grestore
stroke
grestore
} bind def
64.637 251.029 o
grestore
gsave
/o {
gsave
newpath
translate
1.2 setlinewidth
1 setlinejoin

0 setlinecap

-0 0 m
-2 0 l

gsave
0.000 setgray
fill
grestore
stroke
grestore
} bind def
416.88 251.029 o
grestore
gsave
/o {
gsave
newpath
translate
1.2 setlinewidth
1 setlinejoin

0 setlinecap

0 0 m
2 0 l

gsave
0.000 setgray
fill
grestore
stroke
grestore
} bind def
64.637 258.474 o
grestore
gsave
/o {
gsave
newpath
translate
1.2 setlinewidth
1 setlinejoin

0 setlinecap

-0 0 m
-2 0 l

gsave
0.000 setgray
fill
grestore
stroke
grestore
} bind def
416.88 258.474 o
grestore
gsave
/o {
gsave
newpath
translate
1.2 setlinewidth
1 setlinejoin

0 setlinecap

0 0 m
2 0 l

gsave
0.000 setgray
fill
grestore
stroke
grestore
} bind def
64.637 264.249 o
grestore
gsave
/o {
gsave
newpath
translate
1.2 setlinewidth
1 setlinejoin

0 setlinecap

-0 0 m
-2 0 l

gsave
0.000 setgray
fill
grestore
stroke
grestore
} bind def
416.88 264.249 o
grestore
gsave
/o {
gsave
newpath
translate
1.2 setlinewidth
1 setlinejoin

0 setlinecap

0 0 m
2 0 l

gsave
0.000 setgray
fill
grestore
stroke
grestore
} bind def
64.637 268.968 o
grestore
gsave
/o {
gsave
newpath
translate
1.2 setlinewidth
1 setlinejoin

0 setlinecap

-0 0 m
-2 0 l

gsave
0.000 setgray
fill
grestore
stroke
grestore
} bind def
416.88 268.968 o
grestore
gsave
/o {
gsave
newpath
translate
1.2 setlinewidth
1 setlinejoin

0 setlinecap

0 0 m
2 0 l

gsave
0.000 setgray
fill
grestore
stroke
grestore
} bind def
64.637 272.957 o
grestore
gsave
/o {
gsave
newpath
translate
1.2 setlinewidth
1 setlinejoin

0 setlinecap

-0 0 m
-2 0 l

gsave
0.000 setgray
fill
grestore
stroke
grestore
} bind def
416.88 272.957 o
grestore
gsave
/o {
gsave
newpath
translate
1.2 setlinewidth
1 setlinejoin

0 setlinecap

0 0 m
2 0 l

gsave
0.000 setgray
fill
grestore
stroke
grestore
} bind def
64.637 276.413 o
grestore
gsave
/o {
gsave
newpath
translate
1.2 setlinewidth
1 setlinejoin

0 setlinecap

-0 0 m
-2 0 l

gsave
0.000 setgray
fill
grestore
stroke
grestore
} bind def
416.88 276.413 o
grestore
gsave
/o {
gsave
newpath
translate
1.2 setlinewidth
1 setlinejoin

0 setlinecap

0 0 m
2 0 l

gsave
0.000 setgray
fill
grestore
stroke
grestore
} bind def
64.637 279.461 o
grestore
gsave
/o {
gsave
newpath
translate
1.2 setlinewidth
1 setlinejoin

0 setlinecap

-0 0 m
-2 0 l

gsave
0.000 setgray
fill
grestore
stroke
grestore
} bind def
416.88 279.461 o
grestore
gsave
/o {
gsave
newpath
translate
1.2 setlinewidth
1 setlinejoin

0 setlinecap

0 0 m
2 0 l

gsave
0.000 setgray
fill
grestore
stroke
grestore
} bind def
64.637 300.126 o
grestore
gsave
/o {
gsave
newpath
translate
1.2 setlinewidth
1 setlinejoin

0 setlinecap

-0 0 m
-2 0 l

gsave
0.000 setgray
fill
grestore
stroke
grestore
} bind def
416.88 300.126 o
grestore
gsave
/o {
gsave
newpath
translate
1.2 setlinewidth
1 setlinejoin

0 setlinecap

0 0 m
2 0 l

gsave
0.000 setgray
fill
grestore
stroke
grestore
} bind def
64.637 310.619 o
grestore
gsave
/o {
gsave
newpath
translate
1.2 setlinewidth
1 setlinejoin

0 setlinecap

-0 0 m
-2 0 l

gsave
0.000 setgray
fill
grestore
stroke
grestore
} bind def
416.88 310.619 o
grestore
gsave
/o {
gsave
newpath
translate
1.2 setlinewidth
1 setlinejoin

0 setlinecap

0 0 m
2 0 l

gsave
0.000 setgray
fill
grestore
stroke
grestore
} bind def
64.637 318.064 o
grestore
gsave
/o {
gsave
newpath
translate
1.2 setlinewidth
1 setlinejoin

0 setlinecap

-0 0 m
-2 0 l

gsave
0.000 setgray
fill
grestore
stroke
grestore
} bind def
416.88 318.064 o
grestore
gsave
/o {
gsave
newpath
translate
1.2 setlinewidth
1 setlinejoin

0 setlinecap

0 0 m
2 0 l

gsave
0.000 setgray
fill
grestore
stroke
grestore
} bind def
64.637 323.839 o
grestore
gsave
/o {
gsave
newpath
translate
1.2 setlinewidth
1 setlinejoin

0 setlinecap

-0 0 m
-2 0 l

gsave
0.000 setgray
fill
grestore
stroke
grestore
} bind def
416.88 323.839 o
grestore
gsave
/o {
gsave
newpath
translate
1.2 setlinewidth
1 setlinejoin

0 setlinecap

0 0 m
2 0 l

gsave
0.000 setgray
fill
grestore
stroke
grestore
} bind def
64.637 328.557 o
grestore
gsave
/o {
gsave
newpath
translate
1.2 setlinewidth
1 setlinejoin

0 setlinecap

-0 0 m
-2 0 l

gsave
0.000 setgray
fill
grestore
stroke
grestore
} bind def
416.88 328.557 o
grestore
gsave

31.433828 80.162500 translate
90.000000 rotate
0.000000 0 m /A glyphshow
8.143066 0 m /v glyphshow
15.836426 0 m /e glyphshow
23.834473 0 m /r glyphshow
29.179199 0 m /a glyphshow
37.145508 0 m /g glyphshow
45.397461 0 m /e glyphshow
53.395508 0 m /space glyphshow
57.527832 0 m /i glyphshow
61.139648 0 m /n glyphshow
69.378906 0 m /f glyphshow
73.955566 0 m /e glyphshow
81.953613 0 m /r glyphshow
87.048340 0 m /e glyphshow
95.046387 0 m /n glyphshow
103.285645 0 m /c glyphshow
110.433105 0 m /e glyphshow
118.431152 0 m /space glyphshow
122.563477 0 m /t glyphshow
127.660645 0 m /i glyphshow
131.272461 0 m /m glyphshow
143.936035 0 m /e glyphshow
151.934082 0 m /space glyphshow
156.066406 0 m /p glyphshow
164.318359 0 m /e glyphshow
172.316406 0 m /r glyphshow
177.661133 0 m /space glyphshow
181.793457 0 m /j glyphshow
185.405273 0 m /e glyphshow
193.403320 0 m /t glyphshow
198.500488 0 m /space glyphshow
202.632812 0 m /bracketleft glyphshow
207.704590 0 m /uni03BC glyphshow
215.975586 0 m /s glyphshow
222.748535 0 m /bracketright glyphshow
grestore
0.800 setlinewidth
0 setlinejoin
2 setlinecap
gsave
64.636953 57.72 m
64.636953 330.48 l
stroke
grestore
gsave
416.88 57.72 m
416.88 330.48 l
stroke
grestore
gsave
64.636953 57.72 m
416.88 57.72 l
stroke
grestore
gsave
64.636953 330.48 m
416.88 330.48 l
stroke
grestore
1.000 setlinewidth
0 setlinecap
0.800 setgray
gsave
72.336953 63.22 m
202.818203 63.22 l
204.28487 63.22 205.018203 63.953333 205.018203 65.42 c
205.018203 161.16375 l
205.018203 162.630417 204.28487 163.36375 202.818203 163.36375 c
72.336953 163.36375 l
70.870286 163.36375 70.136953 162.630417 70.136953 161.16375 c
70.136953 65.42 l
70.136953 63.953333 70.870286 63.22 72.336953 63.22 c
cl
gsave
1.000 setgray
fill
grestore
stroke
grestore
1 setlinejoin
0.122 0.467 0.706 setrgbcolor
gsave
/o {
gsave
newpath
translate
1.0 setlinewidth
1 setlinejoin

0 setlinecap

-0 -2.236068 m
2.236068 2.236068 l
-2.236068 2.236068 l
cl

gsave
0.122 0.467 0.706 setrgbcolor
fill
grestore
stroke
grestore
} bind def
85.537 153.492 o
grestore
0.000 setgray
/DejaVuSans 11.000 selectfont
gsave

105.336953 150.604375 translate
0.000000 rotate
0.000000 0 m /P glyphshow
6.633301 0 m /F glyphshow
12.960449 0 m /N glyphshow
21.188965 0 m /space glyphshow
24.685547 0 m /parenleft glyphshow
28.977051 0 m /G glyphshow
37.500977 0 m /P glyphshow
44.134277 0 m /U glyphshow
52.185547 0 m /parenright glyphshow
grestore
1.000 0.498 0.055 setrgbcolor
gsave
/o {
gsave
newpath
translate
1.0 setlinewidth
1 setlinejoin

0 setlinecap

0 2.236068 m
-2.236068 -2.236068 l
2.236068 -2.236068 l
cl

gsave
1.000 0.498 0.055 setrgbcolor
fill
grestore
stroke
grestore
} bind def
85.537 137.351 o
grestore
0.000 setgray
gsave

105.336953 134.463750 translate
0.000000 rotate
0.000000 0 m /P glyphshow
6.633301 0 m /F glyphshow
12.960449 0 m /N glyphshow
21.188965 0 m /space glyphshow
24.685547 0 m /O glyphshow
33.343750 0 m /p glyphshow
40.326172 0 m /t glyphshow
44.639160 0 m /period glyphshow
48.135742 0 m /space glyphshow
51.632324 0 m /parenleft glyphshow
55.923828 0 m /G glyphshow
64.447754 0 m /P glyphshow
71.081055 0 m /U glyphshow
79.132324 0 m /parenright glyphshow
grestore
2.000 setlinewidth
0.173 0.627 0.173 setrgbcolor
gsave
/o {
gsave
newpath
translate
2.0 setlinewidth
1 setlinejoin

0 setlinecap

-2.236068 -2.236068 m
2.236068 2.236068 l
-2.236068 2.236068 m
2.236068 -2.236068 l

gsave
0.173 0.627 0.173 setrgbcolor
fill
grestore
stroke
grestore
} bind def
85.537 121.211 o
grestore
0.000 setgray
gsave

105.336953 118.323125 translate
0.000000 rotate
0.000000 0 m /P glyphshow
6.133301 0 m /a glyphshow
12.874023 0 m /r glyphshow
17.396484 0 m /t glyphshow
21.709473 0 m /i glyphshow
24.765625 0 m /c glyphshow
30.813477 0 m /l glyphshow
33.869629 0 m /e glyphshow
40.637207 0 m /N glyphshow
48.865723 0 m /e glyphshow
55.633301 0 m /t glyphshow
59.946289 0 m /space glyphshow
63.442871 0 m /parenleft glyphshow
67.734375 0 m /G glyphshow
76.258301 0 m /P glyphshow
82.891602 0 m /U glyphshow
90.942871 0 m /parenright glyphshow
grestore
1.000 setlinewidth
0.839 0.153 0.157 setrgbcolor
gsave
/o {
gsave
newpath
translate
1.0 setlinewidth
1 setlinejoin

0 setlinecap

0 -2.236068 m
0.593012 -2.236068 1.161816 -2.000462 1.581139 -1.581139 c
2.000462 -1.161816 2.236068 -0.593012 2.236068 0 c
2.236068 0.593012 2.000462 1.161816 1.581139 1.581139 c
1.161816 2.000462 0.593012 2.236068 0 2.236068 c
-0.593012 2.236068 -1.161816 2.000462 -1.581139 1.581139 c
-2.000462 1.161816 -2.236068 0.593012 -2.236068 0 c
-2.236068 -0.593012 -2.000462 -1.161816 -1.581139 -1.581139 c
-1.161816 -2.000462 -0.593012 -2.236068 0 -2.236068 c
cl

gsave
0.839 0.153 0.157 setrgbcolor
fill
grestore
stroke
grestore
} bind def
85.537 105.07 o
grestore
0.000 setgray
gsave

105.336953 102.182500 translate
0.000000 rotate
0.000000 0 m /P glyphshow
6.633301 0 m /F glyphshow
12.960449 0 m /N glyphshow
21.188965 0 m /space glyphshow
24.685547 0 m /parenleft glyphshow
28.977051 0 m /C glyphshow
36.657715 0 m /P glyphshow
43.291016 0 m /U glyphshow
51.342285 0 m /parenright glyphshow
grestore
0.580 0.404 0.741 setrgbcolor
gsave
/o {
gsave
newpath
translate
1.0 setlinewidth
1 setlinejoin

0 setlinecap

-2.236068 -2.236068 m
2.236068 -2.236068 l
2.236068 2.236068 l
-2.236068 2.236068 l
cl

gsave
0.580 0.404 0.741 setrgbcolor
fill
grestore
stroke
grestore
} bind def
85.537 88.9294 o
grestore
0.000 setgray
gsave

105.336953 86.041875 translate
0.000000 rotate
0.000000 0 m /P glyphshow
6.633301 0 m /F glyphshow
12.960449 0 m /N glyphshow
21.188965 0 m /space glyphshow
24.685547 0 m /O glyphshow
33.343750 0 m /p glyphshow
40.326172 0 m /t glyphshow
44.639160 0 m /period glyphshow
48.135742 0 m /space glyphshow
51.632324 0 m /parenleft glyphshow
55.923828 0 m /C glyphshow
63.604492 0 m /P glyphshow
70.237793 0 m /U glyphshow
78.289062 0 m /parenright glyphshow
grestore
0.549 0.337 0.294 setrgbcolor
gsave
/o {
gsave
newpath
translate
1.0 setlinewidth
1 setlinejoin

0 setlinecap

-0 -3.162278 m
3.162278 0 l
0 3.162278 l
-3.162278 0 l
cl

gsave
0.549 0.337 0.294 setrgbcolor
fill
grestore
stroke
grestore
} bind def
85.537 72.7888 o
grestore
0.000 setgray
gsave

105.336953 69.901250 translate
0.000000 rotate
0.000000 0 m /P glyphshow
6.133301 0 m /a glyphshow
12.874023 0 m /r glyphshow
17.396484 0 m /t glyphshow
21.709473 0 m /i glyphshow
24.765625 0 m /c glyphshow
30.813477 0 m /l glyphshow
33.869629 0 m /e glyphshow
40.637207 0 m /N glyphshow
48.865723 0 m /e glyphshow
55.633301 0 m /t glyphshow
59.946289 0 m /space glyphshow
63.442871 0 m /parenleft glyphshow
67.734375 0 m /C glyphshow
75.415039 0 m /P glyphshow
82.048340 0 m /U glyphshow
90.099609 0 m /parenright glyphshow
grestore

end
showpage
